code/build/project/IOSC_Wave.vcd
$date
     Dec 28, 2022       10:59:22
$end

$version
 SystemC 2.3.3-Accellera --- Sep  8 2022 15:04:50
$end

$timescale
     1 ms
$end

$scope module SystemC $end
$var wire    1  aaaaa  s_robot_arm_clk       $end
$var wire    1  aaaab  s_motor_clk       $end
$var wire    1  aaaac  s_sensor_clk       $end
$var wire    1  aaaad  s_controller_clk       $end
$var wire    4  aaaae  leds [3:0]  $end
$var wire    1  aaaaf  reset       $end
$var real    1  aaaag  q       $end
$var real    1  aaaah  snr_q       $end
$var real    1  aaaai  motor_tau       $end
$var real    1  aaaaj  ctl_motor_tau       $end
$upscope $end
$enddefinitions  $end

$comment
All initial values are dumped below at time 0 sec = 0 timescale units.
$end

$dumpvars
1aaaaa
1aaaab
1aaaac
1aaaad
b0 aaaae
0aaaaf
r0 aaaag
r0 aaaah
r0 aaaai
r0 aaaaj
$end

#0
0aaaaa

#1
1aaaaa

#1
0aaaaa

#2
1aaaaa
r-4.905000969301909e-05 aaaag

#2
0aaaaa

#3
1aaaaa
r-8.583272574469447e-05 aaaag

#3
0aaaaa

#4
1aaaaa
r-0.0001348707592114806 aaaag

#4
0aaaaa

#5
1aaaaa
0aaaab
0aaaac
0aaaad
r-0.0001961617090273649 aaaag

#5
0aaaaa

#6
1aaaaa
r-0.0002697032177820802 aaaag

#6
0aaaaa

#7
1aaaaa
r-0.0003554928698576987 aaaag

#7
0aaaaa

#8
1aaaaa
r-0.0004535282787401229 aaaag

#8
0aaaaa

#9
1aaaaa
r-0.000563807028811425 aaaag

#9
0aaaaa

#10
1aaaaa
1aaaab
1aaaac
1aaaad
r-0.0006863268790766597 aaaag

#10
0aaaaa

#11
1aaaaa
r-0.0008210854139178991 aaaag

#11
0aaaaa

#12
1aaaaa
r-0.000968080188613385 aaaag

#12
0aaaaa

#13
1aaaaa
r-0.001127308933064342 aaaag

#13
0aaaaa

#14
1aaaaa
r-0.00129876914434135 aaaag

#14
0aaaaa

#15
1aaaaa
0aaaab
0aaaac
0aaaad
r-0.001482458552345634 aaaag

#15
0aaaaa

#16
1aaaaa
r-0.001678374945186079 aaaag

#16
0aaaaa

#17
1aaaaa
r-0.001886515645310283 aaaag

#17
0aaaaa

#18
1aaaaa
r-0.002106878440827131 aaaag

#18
0aaaaa

#19
1aaaaa
r-0.002339461585506797 aaaag

#19
0aaaaa

#20
1aaaaa
1aaaab
1aaaac
1aaaad
b1 aaaae
r-0.002584262285381556 aaaag
r-0.002339461585506797 aaaah
r372.3999938964844 aaaaj

#20
0aaaaa

#21
1aaaaa
r-0.002841278212144971 aaaag

#21
0aaaaa

#22
1aaaaa
r-0.003110507037490606 aaaag

#22
0aaaaa

#23
1aaaaa
r-0.003391946665942669 aaaag

#23
0aaaaa

#24
1aaaaa
r-0.003685594536364079 aaaag

#24
0aaaaa

#25
1aaaaa
0aaaab
0aaaac
0aaaad
r-0.003991448320448399 aaaag

#25
0aaaaa

#26
1aaaaa
r-0.00430950615555048 aaaag

#26
0aaaaa

#27
1aaaaa
r-0.004639765247702599 aaaag

#27
0aaaaa

#28
1aaaaa
r-0.004982223734259605 aaaag

#28
0aaaaa

#29
1aaaaa
r-0.005336879286915064 aaaag

#29
0aaaaa

#30
1aaaaa
1aaaab
1aaaac
1aaaad
b10 aaaae
r-0.005703730508685112 aaaag
r-0.005336879286915064 aaaah
r372.3999938964844 aaaai
r24.28957366943359 aaaaj

#30
0aaaaa

#31
1aaaaa
r-0.005597877781838179 aaaag

#31
0aaaaa

#32
1aaaaa
r-0.005019411910325289 aaaag

#32
0aaaaa

#33
1aaaaa
r-0.003968420438468456 aaaag

#33
0aaaaa

#34
1aaaaa
r-0.002444964135065675 aaaag

#34
0aaaaa

#35
1aaaaa
0aaaab
0aaaac
0aaaad
r-0.0004490967839956284 aaaag

#35
0aaaaa

#36
1aaaaa
r0.002019151579588652 aaaag

#36
0aaaaa

#37
1aaaaa
r0.004959749989211559 aaaag

#37
0aaaaa

#38
1aaaaa
r0.0083726542070508 aaaag

#38
0aaaaa

#39
1aaaaa
r0.01225784700363874 aaaag

#39
0aaaaa

#40
1aaaaa
1aaaab
1aaaac
1aaaad
b11 aaaae
r0.01661528274416924 aaaag
r0.01225784700363874 aaaah
r24.28957366943359 aaaai
r25.01712417602539 aaaaj

#40
0aaaaa

#41
1aaaaa
r0.02099167741835117 aaaag

#41
0aaaaa

#42
1aaaaa
r0.02538701519370079 aaaag

#42
0aaaaa

#43
1aaaaa
r0.02980131283402443 aaaag

#43
0aaaaa

#44
1aaaaa
r0.03423455357551575 aaaag

#44
0aaaaa

#45
1aaaaa
0aaaab
0aaaac
0aaaad
r0.03868675604462624 aaaag

#45
0aaaaa

#46
1aaaaa
r0.0431579016149044 aaaag

#46
0aaaaa

#47
1aaaaa
r0.04764801263809204 aaaag

#47
0aaaaa

#48
1aaaaa
r0.05215708538889885 aaaag

#48
0aaaaa

#49
1aaaaa
r0.05668510869145393 aaaag

#49
0aaaaa

#50
1aaaaa
1aaaab
1aaaac
1aaaad
b100 aaaae
r0.06123209744691849 aaaag
r0.05668510869145393 aaaah
r25.01712417602539 aaaai
r10.41308498382568 aaaaj

#50
0aaaaa

#51
1aaaaa
r0.06579898297786713 aaaag

#51
0aaaaa

#52
1aaaaa
r0.07038579136133194 aaaag

#52
0aaaaa

#53
1aaaaa
r0.07499250024557114 aaaag

#53
0aaaaa

#54
1aaaaa
r0.07961913198232651 aaaag

#54
0aaaaa

#55
1aaaaa
0aaaab
0aaaac
0aaaad
r0.08426567912101746 aaaag

#55
0aaaaa

#56
1aaaaa
r0.08893215656280518 aaaag

#56
0aaaaa

#57
1aaaaa
r0.09361854940652847 aaaag

#57
0aaaaa

#58
1aaaaa
r0.09832488000392914 aaaag

#58
0aaaaa

#59
1aaaaa
r0.1030511558055878 aaaag

#59
0aaaaa

#60
1aaaaa
1aaaab
1aaaac
1aaaad
b101 aaaae
r0.1077973619103432 aaaag
r0.1030511558055878 aaaah
r10.41308498382568 aaaai
r-9.158382415771484 aaaaj

#60
0aaaaa

#61
1aaaaa
r0.1125444993376732 aaaag

#61
0aaaaa

#62
1aaaaa
r0.1172925606369972 aaaag

#62
0aaaaa

#63
1aaaaa
r0.1220415756106377 aaaag

#63
0aaaaa

#64
1aaaaa
r0.1267915219068527 aaaag

#64
0aaaaa

#65
1aaaaa
0aaaab
0aaaac
0aaaad
r0.1315424144268036 aaaag

#65
0aaaaa

#66
1aaaaa
r0.1362943053245544 aaaag

#66
0aaaaa

#67
1aaaaa
r0.1410471498966217 aaaag

#67
0aaaaa

#68
1aaaaa
r0.1458009630441666 aaaag

#68
0aaaaa

#69
1aaaaa
r0.1505557596683502 aaaag

#69
0aaaaa

#70
1aaaaa
1aaaab
1aaaac
1aaaad
b110 aaaae
r0.1553115695714951 aaaag
r0.1505557596683502 aaaah
r-9.158382415771484 aaaai
r-11.35625076293945 aaaaj

#70
0aaaaa

#71
1aaaaa
r0.1600428968667984 aaaag

#71
0aaaaa

#72
1aaaaa
r0.1647497415542603 aaaag

#72
0aaaaa

#73
1aaaaa
r0.1694321483373642 aaaag

#73
0aaaaa

#74
1aaaaa
r0.174090102314949 aaaag

#74
0aaaaa

#75
1aaaaa
0aaaab
0aaaac
0aaaad
r0.178723618388176 aaaag

#75
0aaaaa

#76
1aaaaa
r0.183332696557045 aaaag

#76
0aaaaa

#77
1aaaaa
r0.1879173815250397 aaaag

#77
0aaaaa

#78
1aaaaa
r0.1924776583909988 aaaag

#78
0aaaaa

#79
1aaaaa
r0.1970135420560837 aaaag

#79
0aaaaa

#80
1aaaaa
1aaaab
1aaaac
1aaaad
b111 aaaae
r0.2015250474214554 aaaag
r0.1970135420560837 aaaah
r-11.35625076293945 aaaai
r-13.02838134765625 aaaaj

#80
0aaaaa

#81
1aaaaa
r0.2060093432664871 aaaag

#81
0aaaaa

#82
1aaaaa
r0.2104664146900177 aaaag

#82
0aaaaa

#83
1aaaaa
r0.2148962914943695 aaaag

#83
0aaaaa

#84
1aaaaa
r0.2192990034818649 aaaag

#84
0aaaaa

#85
1aaaaa
0aaaab
0aaaac
0aaaad
r0.2236745357513428 aaaag

#85
0aaaaa

#86
1aaaaa
r0.228022888302803 aaaag

#86
0aaaaa

#87
1aaaaa
r0.2323440909385681 aaaag

#87
0aaaaa

#88
1aaaaa
r0.2366381883621216 aaaag

#88
0aaaaa

#89
1aaaaa
r0.2409051656723022 aaaag

#89
0aaaaa

#90
1aaaaa
1aaaab
1aaaac
1aaaad
b1000 aaaae
r0.2451450228691101 aaaag
r0.2409051656723022 aaaah
r-13.02838134765625 aaaai
r-13.15715026855469 aaaaj

#90
0aaaaa

#91
1aaaaa
r0.2493556141853333 aaaag

#91
0aaaaa

#92
1aaaaa
r0.2535369694232941 aaaag

#92
0aaaaa

#93
1aaaaa
r0.2576890885829926 aaaag

#93
0aaaaa

#94
1aaaaa
r0.2618119716644287 aaaag

#94
0aaaaa

#95
1aaaaa
0aaaab
0aaaac
0aaaad
r0.2659056782722473 aaaag

#95
0aaaaa

#96
1aaaaa
r0.269970178604126 aaaag

#96
0aaaaa

#97
1aaaaa
r0.2740055024623871 aaaag

#97
0aaaaa

#98
1aaaaa
r0.2780116498470306 aaaag

#98
0aaaaa

#99
1aaaaa
r0.281988650560379 aaaag

#99
0aaaaa

#100
1aaaaa
1aaaab
1aaaac
1aaaad
b1001 aaaae
r0.2859365344047546 aaaag
r0.281988650560379 aaaah
r-13.15715026855469 aaaai
r-12.17461013793945 aaaaj

#100
0aaaaa

#101
1aaaaa
r0.2898551225662231 aaaag

#101
0aaaaa

#102
1aaaaa
r0.2937444448471069 aaaag

#102
0aaaaa

#103
1aaaaa
r0.2976045310497284 aaaag

#103
0aaaaa

#104
1aaaaa
r0.3014353513717651 aaaag

#104
0aaaaa

#105
1aaaaa
0aaaab
0aaaac
0aaaad
r0.3052369654178619 aaaag

#105
0aaaaa

#106
1aaaaa
r0.3090093731880188 aaaag

#106
0aaaaa

#107
1aaaaa
r0.3127526044845581 aaaag

#107
0aaaaa

#108
1aaaaa
r0.3164666593074799 aaaag

#108
0aaaaa

#109
1aaaaa
r0.3201515376567841 aaaag

#109
0aaaaa

#110
1aaaaa
1aaaab
1aaaac
1aaaad
b1010 aaaae
r0.3238072991371155 aaaag
r0.3201515376567841 aaaah
r-12.17461013793945 aaaai
r-10.96912956237793 aaaaj

#110
0aaaaa

#111
1aaaaa
r0.3274351954460144 aaaag

#111
0aaaaa

#112
1aaaaa
r0.3310352563858032 aaaag

#112
0aaaaa

#113
1aaaaa
r0.3346075117588043 aaaag

#113
0aaaaa

#114
1aaaaa
r0.3381519913673401 aaaag

#114
0aaaaa

#115
1aaaaa
0aaaab
0aaaac
0aaaad
r0.3416686654090881 aaaag

#115
0aaaaa

#116
1aaaaa
r0.3451575636863708 aaaag

#116
0aaaaa

#117
1aaaaa
r0.348618745803833 aaaag

#117
0aaaaa

#118
1aaaaa
r0.3520521819591522 aaaag

#118
0aaaaa

#119
1aaaaa
r0.3554579019546509 aaaag

#119
0aaaaa

#120
1aaaaa
1aaaab
1aaaac
1aaaad
b1011 aaaae
r0.358835905790329 aaaag
r0.3554579019546509 aaaah
r-10.96912956237793 aaaai
r-9.628383636474609 aaaaj

#120
0aaaaa

#121
1aaaaa
r0.3621878325939178 aaaag

#121
0aaaaa

#122
1aaaaa
r0.3655136525630951 aaaag

#122
0aaaaa

#123
1aaaaa
r0.3688133656978607 aaaag

#123
0aaaaa

#124
1aaaaa
r0.3720870018005371 aaaag

#124
0aaaaa

#125
1aaaaa
0aaaab
0aaaac
0aaaad
r0.375334620475769 aaaag

#125
0aaaaa

#126
1aaaaa
r0.3785561919212341 aaaag

#126
0aaaaa

#127
1aaaaa
r0.3817517459392548 aaaag

#127
0aaaaa

#128
1aaaaa
r0.3849212825298309 aaaag

#128
0aaaaa

#129
1aaaaa
r0.388064831495285 aaaag

#129
0aaaaa

#130
1aaaaa
1aaaab
1aaaac
1aaaad
b1100 aaaae
r0.3911824524402618 aaaag
r0.388064831495285 aaaah
r-9.628383636474609 aaaai
r-8.276580810546875 aaaaj

#130
0aaaaa

#131
1aaaaa
r0.3942758738994598 aaaag

#131
0aaaaa

#132
1aaaaa
r0.397345095872879 aaaag

#132
0aaaaa

#133
1aaaaa
r0.4003901481628418 aaaag

#133
0aaaaa

#134
1aaaaa
r0.4034110307693481 aaaag

#134
0aaaaa

#135
1aaaaa
0aaaab
0aaaac
0aaaad
r0.4064077734947205 aaaag

#135
0aaaaa

#136
1aaaaa
r0.4093803763389587 aaaag

#136
0aaaaa

#137
1aaaaa
r0.4123288691043854 aaaag

#137
0aaaaa

#138
1aaaaa
r0.4152533113956451 aaaag

#138
0aaaaa

#139
1aaaaa
r0.4181536436080933 aaaag

#139
0aaaaa

#140
1aaaaa
1aaaab
1aaaac
1aaaad
b1101 aaaae
r0.4210299253463745 aaaag
r0.4181536436080933 aaaah
r-8.276580810546875 aaaai
r-6.981979370117188 aaaaj

#140
0aaaaa

#141
1aaaaa
r0.4238839149475098 aaaag

#141
0aaaaa

#142
1aaaaa
r0.426715612411499 aaaag

#142
0aaaaa

#143
1aaaaa
r0.4295250773429871 aaaag

#143
0aaaaa

#144
1aaaaa
r0.4323122799396515 aaaag

#144
0aaaaa

#145
1aaaaa
0aaaab
0aaaac
0aaaad
r0.4350773096084595 aaaag

#145
0aaaaa

#146
1aaaaa
r0.4378201365470886 aaaag

#146
0aaaaa

#147
1aaaaa
r0.4405407607555389 aaaag

#147
0aaaaa

#148
1aaaaa
r0.4432391822338104 aaaag

#148
0aaaaa

#149
1aaaaa
r0.4459154605865479 aaaag

#149
0aaaaa

#150
1aaaaa
1aaaab
1aaaac
1aaaad
b1110 aaaae
r0.4485695958137512 aaaag
r0.4459154605865479 aaaah
r-6.981979370117188 aaaai
r-5.764848709106445 aaaaj

#150
0aaaaa

#151
1aaaaa
r0.4512032568454742 aaaag

#151
0aaaaa

#152
1aaaaa
r0.4538165330886841 aaaag

#152
0aaaaa

#153
1aaaaa
r0.4564093947410583 aaaag

#153
0aaaaa

#154
1aaaaa
r0.4589818716049194 aaaag

#154
0aaaaa

#155
1aaaaa
0aaaab
0aaaac
0aaaad
r0.4615339636802673 aaaag

#155
0aaaaa

#156
1aaaaa
r0.4640656709671021 aaaag

#156
0aaaaa

#157
1aaaaa
r0.466577023267746 aaaag

#157
0aaaaa

#158
1aaaaa
r0.4690680503845215 aaaag

#158
0aaaaa

#159
1aaaaa
r0.4715387523174286 aaaag

#159
0aaaaa

#160
1aaaaa
1aaaab
1aaaac
1aaaad
b1111 aaaae
r0.4739891588687897 aaaag
r0.4715387523174286 aaaah
r-5.764848709106445 aaaai
r-4.635928153991699 aaaaj

#160
0aaaaa

#161
1aaaaa
r0.4764208495616913 aaaag

#161
0aaaaa

#162
1aaaaa
r0.4788338541984558 aaaag

#162
0aaaaa

#163
1aaaaa
r0.4812281727790833 aaaag

#163
0aaaaa

#164
1aaaaa
r0.483603835105896 aaaag

#164
0aaaaa

#165
1aaaaa
0aaaab
0aaaac
0aaaad
r0.485960841178894 aaaag

#165
0aaaaa

#166
1aaaaa
r0.4882992208003998 aaaag

#166
0aaaaa

#167
1aaaaa
r0.4906190037727356 aaaag

#167
0aaaaa

#168
1aaaaa
r0.4929201900959015 aaaag

#168
0aaaaa

#169
1aaaaa
r0.4952027797698975 aaaag

#169
0aaaaa

#170
1aaaaa
1aaaab
1aaaac
1aaaad
b0 aaaae
r0.4974668025970459 aaaag
r0.4952027797698975 aaaah
r-4.635928153991699 aaaai
r-3.596983909606934 aaaaj

#170
0aaaaa

#171
1aaaaa
r0.4997137188911438 aaaag

#171
0aaaaa

#172
1aaaaa
r0.5019435882568359 aaaag

#172
0aaaaa

#173
1aaaaa
r0.5041563510894775 aaaag

#173
0aaaaa

#174
1aaaaa
r0.5063521265983582 aaaag

#174
0aaaaa

#175
1aaaaa
0aaaab
0aaaac
0aaaad
r0.508530855178833 aaaag

#175
0aaaaa

#176
1aaaaa
r0.5106925964355469 aaaag

#176
0aaaaa

#177
1aaaaa
r0.512837290763855 aaaag

#177
0aaaaa

#178
1aaaaa
r0.5149649977684021 aaaag

#178
0aaaaa

#179
1aaaaa
r0.5170757174491882 aaaag

#179
0aaaaa

#180
1aaaaa
1aaaab
1aaaac
1aaaad
b1 aaaae
r0.5191695094108582 aaaag
r0.5170757174491882 aaaah
r-3.596983909606934 aaaai
r-2.645115852355957 aaaaj

#180
0aaaaa

#181
1aaaaa
r0.5212476849555969 aaaag

#181
0aaaaa

#182
1aaaaa
r0.5233103036880493 aaaag

#182
0aaaaa

#183
1aaaaa
r0.5253573656082153 aaaag

#183
0aaaaa

#184
1aaaaa
r0.527388870716095 aaaag

#184
0aaaaa

#185
1aaaaa
0aaaab
0aaaac
0aaaad
r0.5294048190116882 aaaag

#185
0aaaaa

#186
1aaaaa
r0.5314052700996399 aaaag

#186
0aaaaa

#187
1aaaaa
r0.5333901643753052 aaaag

#187
0aaaaa

#188
1aaaaa
r0.5353595614433289 aaaag

#188
0aaaaa

#189
1aaaaa
r0.5373135209083557 aaaag

#189
0aaaaa

#190
1aaaaa
1aaaab
1aaaac
1aaaad
b10 aaaae
r0.539251983165741 aaaag
r0.5373135209083557 aaaah
r-2.645115852355957 aaaai
r-1.776000022888184 aaaaj

#190
0aaaaa

#191
1aaaaa
r0.5411762595176697 aaaag

#191
0aaaaa

#192
1aaaaa
r0.5430862903594971 aaaag

#192
0aaaaa

#193
1aaaaa
r0.5449821352958679 aaaag

#193
0aaaaa

#194
1aaaaa
r0.5468637943267822 aaaag

#194
0aaaaa

#195
1aaaaa
0aaaab
0aaaac
0aaaad
r0.5487313270568848 aaaag

#195
0aaaaa

#196
1aaaaa
r0.5505847334861755 aaaag

#196
0aaaaa

#197
1aaaaa
r0.5524239540100098 aaaag

#197
0aaaaa

#198
1aaaaa
r0.5542490482330322 aaaag

#198
0aaaaa

#199
1aaaaa
r0.5560600161552429 aaaag

#199
0aaaaa

#200
1aaaaa
1aaaab
1aaaac
1aaaad
b11 aaaae
r0.5578569173812866 aaaag
r0.5560600161552429 aaaah
r-1.776000022888184 aaaai
r-0.9840869903564453 aaaaj

#200
0aaaaa

#201
1aaaaa
r0.5596408247947693 aaaag

#201
0aaaaa

#202
1aaaaa
r0.5614117980003357 aaaag

#202
0aaaaa

#203
1aaaaa
r0.5631698369979858 aaaag

#203
0aaaaa

#204
1aaaaa
r0.5649150013923645 aaaag

#204
0aaaaa

#205
1aaaaa
0aaaab
0aaaac
0aaaad
r0.5666472315788269 aaaag

#205
0aaaaa

#206
1aaaaa
r0.5683665871620178 aaaag

#206
0aaaaa

#207
1aaaaa
r0.5700730681419373 aaaag

#207
0aaaaa

#208
1aaaaa
r0.5717666745185852 aaaag

#208
0aaaaa

#209
1aaaaa
r0.5734474062919617 aaaag

#209
0aaaaa

#210
1aaaaa
1aaaab
1aaaac
1aaaad
b100 aaaae
r0.5751152634620667 aaaag
r0.5734474062919617 aaaah
r-0.9840869903564453 aaaai
r-0.2638139724731445 aaaaj

#210
0aaaaa

#211
1aaaaa
r0.5767713785171509 aaaag

#211
0aaaaa

#212
1aaaaa
r0.5784156918525696 aaaag

#212
0aaaaa

#213
1aaaaa
r0.5800482034683228 aaaag

#213
0aaaaa

#214
1aaaaa
r0.5816689729690552 aaaag

#214
0aaaaa

#215
1aaaaa
0aaaab
0aaaac
0aaaad
r0.5832780003547668 aaaag

#215
0aaaaa

#216
1aaaaa
r0.584875226020813 aaaag

#216
0aaaaa

#217
1aaaaa
r0.5864607691764832 aaaag

#217
0aaaaa

#218
1aaaaa
r0.5880345702171326 aaaag

#218
0aaaaa

#219
1aaaaa
r0.589596688747406 aaaag

#219
0aaaaa

#220
1aaaaa
1aaaab
1aaaac
1aaaad
b101 aaaae
r0.5911471247673035 aaaag
r0.589596688747406 aaaah
r-0.2638139724731445 aaaai
r0.3903598785400391 aaaaj

#220
0aaaaa

#221
1aaaaa
r0.5926867723464966 aaaag

#221
0aaaaa

#222
1aaaaa
r0.5942156910896301 aaaag

#222
0aaaaa

#223
1aaaaa
r0.5957338809967041 aaaag

#223
0aaaaa

#224
1aaaaa
r0.5972414016723633 aaaag

#224
0aaaaa

#225
1aaaaa
0aaaab
0aaaac
0aaaad
r0.5987381935119629 aaaag

#225
0aaaaa

#226
1aaaaa
r0.6002243161201477 aaaag

#226
0aaaaa

#227
1aaaaa
r0.6016997694969177 aaaag

#227
0aaaaa

#228
1aaaaa
r0.6031645536422729 aaaag

#228
0aaaaa

#229
1aaaaa
r0.6046186685562134 aaaag

#229
0aaaaa

#230
1aaaaa
1aaaab
1aaaac
1aaaad
b110 aaaae
r0.606062114238739 aaaag
r0.6046186685562134 aaaah
r0.3903598785400391 aaaai
r0.9838247299194336 aaaaj

#230
0aaaaa

#231
1aaaaa
r0.6074957847595215 aaaag

#231
0aaaaa

#232
1aaaaa
r0.6089196801185608 aaaag

#232
0aaaaa

#233
1aaaaa
r0.6103338599205017 aaaag

#233
0aaaaa

#234
1aaaaa
r0.6117382645606995 aaaag

#234
0aaaaa

#235
1aaaaa
0aaaab
0aaaac
0aaaad
r0.6131329536437988 aaaag

#235
0aaaaa

#236
1aaaaa
r0.6145179271697998 aaaag

#236
0aaaaa

#237
1aaaaa
r0.6158931851387024 aaaag

#237
0aaaaa

#238
1aaaaa
r0.6172587275505066 aaaag

#238
0aaaaa

#239
1aaaaa
r0.6186145544052124 aaaag

#239
0aaaaa

#240
1aaaaa
1aaaab
1aaaac
1aaaad
b111 aaaae
r0.6199607253074646 aaaag
r0.6186145544052124 aaaah
r0.9838247299194336 aaaai
r1.521523475646973 aaaaj

#240
0aaaaa

#241
1aaaaa
r0.6212979555130005 aaaag

#241
0aaaaa

#242
1aaaaa
r0.6226263046264648 aaaag

#242
0aaaaa

#243
1aaaaa
r0.6239457726478577 aaaag

#243
0aaaaa

#244
1aaaaa
r0.625256359577179 aaaag

#244
0aaaaa

#245
1aaaaa
0aaaab
0aaaac
0aaaad
r0.6265581250190735 aaaag

#245
0aaaaa

#246
1aaaaa
r0.6278510093688965 aaaag

#246
0aaaaa

#247
1aaaaa
r0.6291350722312927 aaaag

#247
0aaaaa

#248
1aaaaa
r0.6304103136062622 aaaag

#248
0aaaaa

#249
1aaaaa
r0.6316767334938049 aaaag

#249
0aaaaa

#250
1aaaaa
1aaaab
1aaaac
1aaaad
b1000 aaaae
r0.6329343318939209 aaaag
r0.6316767334938049 aaaah
r1.521523475646973 aaaai
r2.008167266845703 aaaaj

#250
0aaaaa

#251
1aaaaa
r0.6341838240623474 aaaag

#251
0aaaaa

#252
1aaaaa
r0.6354252696037292 aaaag

#252
0aaaaa

#253
1aaaaa
r0.6366586089134216 aaaag

#253
0aaaaa

#254
1aaaaa
r0.6378839015960693 aaaag

#254
0aaaaa

#255
1aaaaa
0aaaab
0aaaac
0aaaad
r0.6391010880470276 aaaag

#255
0aaaaa

#256
1aaaaa
r0.6403102278709412 aaaag

#256
0aaaaa

#257
1aaaaa
r0.6415113210678101 aaaag

#257
0aaaaa

#258
1aaaaa
r0.6427044272422791 aaaag

#258
0aaaaa

#259
1aaaaa
r0.6438894867897034 aaaag

#259
0aaaaa

#260
1aaaaa
1aaaab
1aaaac
1aaaad
b1001 aaaae
r0.6450665593147278 aaaag
r0.6438894867897034 aaaah
r2.008167266845703 aaaai
r2.448054313659668 aaaaj

#260
0aaaaa

#261
1aaaaa
r0.6462362408638 aaaag

#261
0aaaaa

#262
1aaaaa
r0.6473985910415649 aaaag

#262
0aaaaa

#263
1aaaaa
r0.6485536098480225 aaaag

#263
0aaaaa

#264
1aaaaa
r0.6497012376785278 aaaag

#264
0aaaaa

#265
1aaaaa
0aaaab
0aaaac
0aaaad
r0.6508415341377258 aaaag

#265
0aaaaa

#266
1aaaaa
r0.6519745588302612 aaaag

#266
0aaaaa

#267
1aaaaa
r0.6531002521514893 aaaag

#267
0aaaaa

#268
1aaaaa
r0.6542186141014099 aaaag

#268
0aaaaa

#269
1aaaaa
r0.655329704284668 aaaag

#269
0aaaaa

#270
1aaaaa
1aaaab
1aaaac
1aaaad
b1010 aaaae
r0.6564335227012634 aaaag
r0.655329704284668 aaaah
r2.448054313659668 aaaai
r2.845200538635254 aaaaj

#270
0aaaaa

#271
1aaaaa
r0.6575306057929993 aaaag

#271
0aaaaa

#272
1aaaaa
r0.6586210131645203 aaaag

#272
0aaaaa

#273
1aaaaa
r0.6597047448158264 aaaag

#273
0aaaaa

#274
1aaaaa
r0.6607818007469177 aaaag

#274
0aaaaa

#275
1aaaaa
0aaaab
0aaaac
0aaaad
r0.6618521809577942 aaaag

#275
0aaaaa

#276
1aaaaa
r0.6629158854484558 aaaag

#276
0aaaaa

#277
1aaaaa
r0.6639729738235474 aaaag

#277
0aaaaa

#278
1aaaaa
r0.6650233864784241 aaaag

#278
0aaaaa

#279
1aaaaa
r0.6660671830177307 aaaag

#279
0aaaaa

#280
1aaaaa
1aaaab
1aaaac
1aaaad
b1011 aaaae
r0.6671043634414673 aaaag
r0.6660671830177307 aaaah
r2.845200538635254 aaaai
r3.203208923339844 aaaaj

#280
0aaaaa

#281
1aaaaa
r0.6681354641914368 aaaag

#281
0aaaaa

#282
1aaaaa
r0.6691604852676392 aaaag

#282
0aaaaa

#283
1aaaaa
r0.6701793670654297 aaaag

#283
0aaaaa

#284
1aaaaa
r0.6711922287940979 aaaag

#284
0aaaaa

#285
1aaaaa
0aaaab
0aaaac
0aaaad
r0.672199010848999 aaaag

#285
0aaaaa

#286
1aaaaa
r0.6731997132301331 aaaag

#286
0aaaaa

#287
1aaaaa
r0.6741943955421448 aaaag

#287
0aaaaa

#288
1aaaaa
r0.6751829981803894 aaaag

#288
0aaaaa

#289
1aaaaa
r0.6761655807495117 aaaag

#289
0aaaaa

#290
1aaaaa
1aaaab
1aaaac
1aaaad
b1100 aaaae
r0.6771421432495117 aaaag
r0.6761655807495117 aaaah
r3.203208923339844 aaaai
r3.525695323944092 aaaaj

#290
0aaaaa

#291
1aaaaa
r0.6781131625175476 aaaag

#291
0aaaaa

#292
1aaaaa
r0.6790786385536194 aaaag

#292
0aaaaa

#293
1aaaaa
r0.6800385713577271 aaaag

#293
0aaaaa

#294
1aaaaa
r0.6809930205345154 aaaag

#294
0aaaaa

#295
1aaaaa
0aaaab
0aaaac
0aaaad
r0.6819419264793396 aaaag

#295
0aaaaa

#296
1aaaaa
r0.6828853487968445 aaaag

#296
0aaaaa

#297
1aaaaa
r0.68382328748703 aaaag

#297
0aaaaa

#298
1aaaaa
r0.6847557425498962 aaaag

#298
0aaaaa

#299
1aaaaa
r0.6856826543807983 aaaag

#299
0aaaaa

#300
1aaaaa
1aaaab
1aaaac
1aaaad
b1101 aaaae
r0.6866041421890259 aaaag
r0.6856826543807983 aaaah
r3.525695323944092 aaaai
r3.81566047668457 aaaaj

#300
0aaaaa

#301
1aaaaa
r0.6875205636024475 aaaag

#301
0aaaaa

#302
1aaaaa
r0.6884319186210632 aaaag

#302
0aaaaa

#303
1aaaaa
r0.6893382668495178 aaaag

#303
0aaaaa

#304
1aaaaa
r0.6902396082878113 aaaag

#304
0aaaaa

#305
1aaaaa
0aaaab
0aaaac
0aaaad
r0.6911359429359436 aaaag

#305
0aaaaa

#306
1aaaaa
r0.69202721118927 aaaag

#306
0aaaaa

#307
1aaaaa
r0.6929135322570801 aaaag

#307
0aaaaa

#308
1aaaaa
r0.693794846534729 aaaag

#308
0aaaaa

#309
1aaaaa
r0.6946711540222168 aaaag

#309
0aaaaa

#310
1aaaaa
1aaaab
1aaaac
1aaaad
b1110 aaaae
r0.6955425143241882 aaaag
r0.6946711540222168 aaaah
r3.81566047668457 aaaai
r4.076062202453613 aaaaj

#310
0aaaaa

#311
1aaaaa
r0.6964092254638672 aaaag

#311
0aaaaa

#312
1aaaaa
r0.6972714066505432 aaaag

#312
0aaaaa

#313
1aaaaa
r0.6981289982795715 aaaag

#313
0aaaaa

#314
1aaaaa
r0.6989820003509521 aaaag

#314
0aaaaa

#315
1aaaaa
0aaaab
0aaaac
0aaaad
r0.6998304128646851 aaaag

#315
0aaaaa

#316
1aaaaa
r0.700674295425415 aaaag

#316
0aaaaa

#317
1aaaaa
r0.7015135884284973 aaaag

#317
0aaaaa

#318
1aaaaa
r0.7023483514785767 aaaag

#318
0aaaaa

#319
1aaaaa
r0.7031785845756531 aaaag

#319
0aaaaa

#320
1aaaaa
1aaaab
1aaaac
1aaaad
b1111 aaaae
r0.7040042877197266 aaaag
r0.7031785845756531 aaaah
r4.076062202453613 aaaai
r4.309389114379883 aaaaj

#320
0aaaaa

#321
1aaaaa
r0.7048258185386658 aaaag

#321
0aaaaa

#322
1aaaaa
r0.7056431770324707 aaaag

#322
0aaaaa

#323
1aaaaa
r0.7064563632011414 aaaag

#323
0aaaaa

#324
1aaaaa
r0.7072653770446777 aaaag

#324
0aaaaa

#325
1aaaaa
0aaaab
0aaaac
0aaaad
r0.7080702781677246 aaaag

#325
0aaaaa

#326
1aaaaa
r0.7088710069656372 aaaag

#326
0aaaaa

#327
1aaaaa
r0.7096676230430603 aaaag

#327
0aaaaa

#328
1aaaaa
r0.7104600667953491 aaaag

#328
0aaaaa

#329
1aaaaa
r0.7112483978271484 aaaag

#329
0aaaaa

#330
1aaaaa
1aaaab
1aaaac
1aaaad
b0 aaaae
r0.7120326161384583 aaaag
r0.7112483978271484 aaaah
r4.309389114379883 aaaai
r4.518343925476074 aaaaj

#330
0aaaaa

#331
1aaaaa
r0.7128130197525024 aaaag

#331
0aaaaa

#332
1aaaaa
r0.713589608669281 aaaag

#332
0aaaaa

