code/build/project/IOSC_Wave.vcd
$date
     Dec 23, 2022       10:20:12
$end

$version
 SystemC 2.3.3-Accellera --- Sep  8 2022 15:04:50
$end

$timescale
     1 ms
$end

$scope module SystemC $end
$var wire    1  aaaaa  s_robot_arm_clk       $end
$var wire    1  aaaab  s_motor_clk       $end
$var wire    1  aaaac  s_sensor_clk       $end
$var wire    1  aaaad  s_controller_clk       $end
$var wire    1  aaaae  reset       $end
$var real    1  aaaaf  q       $end
$var real    1  aaaag  snr_q       $end
$var real    1  aaaah  motor_tau       $end
$var real    1  aaaai  ctl_motor_tau       $end
$upscope $end
$enddefinitions  $end

$comment
All initial values are dumped below at time 0 sec = 0 timescale units.
$end

$dumpvars
1aaaaa
1aaaab
1aaaac
1aaaad
0aaaae
r0 aaaaf
r0 aaaag
r0 aaaah
r0 aaaai
$end

#5
0aaaaa
0aaaab
0aaaac
0aaaad

#10
1aaaaa
1aaaab
1aaaac
1aaaad

#15
0aaaaa
0aaaab
0aaaac
0aaaad

#20
1aaaaa
1aaaab
1aaaac
1aaaad
r-0.004905000329017639 aaaaf
r297.2200012207031 aaaai

#25
0aaaaa
0aaaab
0aaaac
0aaaad

#30
1aaaaa
1aaaab
1aaaac
1aaaad
r-0.008579008281230927 aaaaf
r-0.004905000329017639 aaaag
r297.2200012207031 aaaah
r22.32999992370605 aaaai

#35
0aaaaa
0aaaab
0aaaac
0aaaad

#40
1aaaaa
1aaaab
1aaaac
1aaaad
r0.02522826939821243 aaaaf
r-0.008579008281230927 aaaag
r22.32999992370605 aaaah
r25.24619293212891 aaaai

#45
0aaaaa
0aaaab
0aaaac
0aaaad

#50
1aaaaa
1aaaab
1aaaac
1aaaad
r0.06068223714828491 aaaaf
r0.02522826939821243 aaaag
r25.24619293212891 aaaah
r24.76093673706055 aaaai

#55
0aaaaa
0aaaab
0aaaac
0aaaad

#60
1aaaaa
1aaaab
1aaaac
1aaaad
r0.09816338866949081 aaaaf
r0.06068223714828491 aaaag
r24.76093673706055 aaaah
r3.509681701660156 aaaai

#65
0aaaaa
0aaaab
0aaaac
0aaaad

#70
1aaaaa
1aaaab
1aaaac
1aaaad
r0.1376108825206757 aaaaf
r0.09816338866949081 aaaag
r3.509681701660156 aaaah
r1.927341461181641 aaaai

#75
0aaaaa
0aaaab
0aaaac
0aaaad

#80
1aaaaa
1aaaab
1aaaac
1aaaad
r0.1762620061635971 aaaaf
r0.1376108825206757 aaaag
r1.927341461181641 aaaah
r0.0870208740234375 aaaai

#85
0aaaaa
0aaaab
0aaaac
0aaaad

#90
1aaaaa
1aaaab
1aaaac
1aaaad
r0.2139186561107635 aaaaf
r0.1762620061635971 aaaag
r0.0870208740234375 aaaah
r-1.767486572265625 aaaai

#95
0aaaaa
0aaaab
0aaaac
0aaaad

#100
1aaaaa
1aaaab
1aaaac
1aaaad
r0.2503508031368256 aaaaf
r0.2139186561107635 aaaag
r-1.767486572265625 aaaah
r-2.08917236328125 aaaai

#105
0aaaaa
0aaaab
0aaaac
0aaaad

#110
1aaaaa
1aaaab
1aaaac
1aaaad
r0.2853280901908875 aaaaf
r0.2503508031368256 aaaag
r-2.08917236328125 aaaah
r-2.284200668334961 aaaai

#115
0aaaaa
0aaaab
0aaaac
0aaaad

#120
1aaaaa
1aaaab
1aaaac
1aaaad
r0.3188208937644958 aaaaf
r0.2853280901908875 aaaag
r-2.284200668334961 aaaah
r-2.32975959777832 aaaai

#125
0aaaaa
0aaaab
0aaaac
0aaaad

#130
1aaaaa
1aaaab
1aaaac
1aaaad
r0.3508170247077942 aaaaf
r0.3188208937644958 aaaag
r-2.32975959777832 aaaah
r-2.220449447631836 aaaai

#135
0aaaaa
0aaaab
0aaaac
0aaaad

#140
1aaaaa
1aaaab
1aaaac
1aaaad
r0.38132444024086 aaaaf
r0.3508170247077942 aaaag
r-2.220449447631836 aaaah
r-2.065910339355469 aaaai

#145
0aaaaa
0aaaab
0aaaac
0aaaad

#150
1aaaaa
1aaaab
1aaaac
1aaaad
r0.410371720790863 aaaaf
r0.38132444024086 aaaag
r-2.065910339355469 aaaah
r-1.875253677368164 aaaai

#155
0aaaaa
0aaaab
0aaaac
0aaaad

#160
1aaaaa
1aaaab
1aaaac
1aaaad
r0.4379937052726746 aaaaf
r0.410371720790863 aaaag
r-1.875253677368164 aaaah
r-1.659561157226562 aaaai

#165
0aaaaa
0aaaab
0aaaac
0aaaad

#170
1aaaaa
1aaaab
1aaaac
1aaaad
r0.4642301499843597 aaaaf
r0.4379937052726746 aaaag
r-1.659561157226562 aaaah
r-1.430686950683594 aaaai

#175
0aaaaa
0aaaab
0aaaac
0aaaad

#180
1aaaaa
1aaaab
1aaaac
1aaaad
r0.489124059677124 aaaaf
r0.4642301499843597 aaaag
r-1.430686950683594 aaaah
r-1.192627906799316 aaaai

#185
0aaaaa
0aaaab
0aaaac
0aaaad

#190
1aaaaa
1aaaab
1aaaac
1aaaad
r0.5127201676368713 aaaaf
r0.489124059677124 aaaag
r-1.192627906799316 aaaah
r-0.9488725662231445 aaaai

#195
0aaaaa
0aaaab
0aaaac
0aaaad

#200
1aaaaa
1aaaab
1aaaac
1aaaad
r0.5350642800331116 aaaaf
r0.5127201676368713 aaaag
r-0.9488725662231445 aaaah
r-0.7019004821777344 aaaai

#205
0aaaaa
0aaaab
0aaaac
0aaaad

#210
1aaaaa
1aaaab
1aaaac
1aaaad
r0.5562026500701904 aaaaf
r0.5350642800331116 aaaag
r-0.7019004821777344 aaaah
r-0.4536476135253906 aaaai

#215
0aaaaa
0aaaab
0aaaac
0aaaad

#220
1aaaaa
1aaaab
1aaaac
1aaaad
r0.5761818289756775 aaaaf
r0.5562026500701904 aaaag
r-0.4536476135253906 aaaah
r-0.2054662704467773 aaaai

#225
0aaaaa
0aaaab
0aaaac
0aaaad

#230
1aaaaa
1aaaab
1aaaac
1aaaad
r0.5950481295585632 aaaaf
r0.5761818289756775 aaaag
r-0.2054662704467773 aaaah
r0.04146003723144531 aaaai

#235
0aaaaa
0aaaab
0aaaac
0aaaad

#240
1aaaaa
1aaaab
1aaaac
1aaaad
r0.6128474473953247 aaaaf
r0.5950481295585632 aaaag
r0.04146003723144531 aaaah
r0.2860860824584961 aaaai

#245
0aaaaa
0aaaab
0aaaac
0aaaad

#250
1aaaaa
1aaaab
1aaaac
1aaaad
r0.6296252012252808 aaaaf
r0.6128474473953247 aaaag
r0.2860860824584961 aaaah
r0.5276651382446289 aaaai

#255
0aaaaa
0aaaab
0aaaac
0aaaad

#260
1aaaaa
1aaaab
1aaaac
1aaaad
r0.6454260349273682 aaaaf
r0.6296252012252808 aaaag
r0.5276651382446289 aaaah
r0.7655019760131836 aaaai

#265
0aaaaa
0aaaab
0aaaac
0aaaad

#270
1aaaaa
1aaaab
1aaaac
1aaaad
r0.6602937579154968 aaaaf
r0.6454260349273682 aaaag
r0.7655019760131836 aaaah
r0.9990024566650391 aaaai

#275
0aaaaa
0aaaab
0aaaac
0aaaad

#280
1aaaaa
1aaaab
1aaaac
1aaaad
r0.6742711663246155 aaaaf
r0.6602937579154968 aaaag
r0.9990024566650391 aaaah
r1.22767448425293 aaaai

#285
0aaaaa
0aaaab
0aaaac
0aaaad

#290
1aaaaa
1aaaab
1aaaac
1aaaad
r0.6874001622200012 aaaaf
r0.6742711663246155 aaaag
r1.22767448425293 aaaah
r1.451172828674316 aaaai

#295
0aaaaa
0aaaab
0aaaac
0aaaad

#300
1aaaaa
1aaaab
1aaaac
1aaaad
r0.6997214555740356 aaaaf
r0.6874001622200012 aaaag
r1.451172828674316 aaaah
r1.669179439544678 aaaai

#305
0aaaaa
0aaaab
0aaaac
0aaaad

#310
1aaaaa
1aaaab
1aaaac
1aaaad
r0.7112745642662048 aaaaf
r0.6997214555740356 aaaag
r1.669179439544678 aaaah
r1.881339073181152 aaaai

#315
0aaaaa
0aaaab
0aaaac
0aaaad

#320
1aaaaa
1aaaab
1aaaac
1aaaad
r0.7220978736877441 aaaaf
r0.7112745642662048 aaaag
r1.881339073181152 aaaah
r2.087545394897461 aaaai

#325
0aaaaa
0aaaab
0aaaac
0aaaad

#330
1aaaaa
1aaaab
1aaaac
1aaaad
r0.7322285771369934 aaaaf
r0.7220978736877441 aaaag
r2.087545394897461 aaaah
r2.287644386291504 aaaai

#335
0aaaaa
0aaaab
0aaaac
0aaaad

#340
1aaaaa
1aaaab
1aaaac
1aaaad
r0.7417025566101074 aaaaf
r0.7322285771369934 aaaag
r2.287644386291504 aaaah
r2.481478214263916 aaaai

#345
0aaaaa
0aaaab
0aaaac
0aaaad

#350
1aaaaa
1aaaab
1aaaac
1aaaad
r0.7505545020103455 aaaaf
r0.7417025566101074 aaaag
r2.481478214263916 aaaah
r2.66899585723877 aaaai

#355
0aaaaa
0aaaab
0aaaac
0aaaad

#360
1aaaaa
1aaaab
1aaaac
1aaaad
r0.7588177919387817 aaaaf
r0.7505545020103455 aaaag
r2.66899585723877 aaaah
r2.850185871124268 aaaai

#365
0aaaaa
0aaaab
0aaaac
0aaaad

#370
1aaaaa
1aaaab
1aaaac
1aaaad
r0.7665245532989502 aaaaf
r0.7588177919387817 aaaag
r2.850185871124268 aaaah
r3.024990081787109 aaaai

#375
0aaaaa
0aaaab
0aaaac
0aaaad

#380
1aaaaa
1aaaab
1aaaac
1aaaad
r0.7737057209014893 aaaaf
r0.7665245532989502 aaaag
r3.024990081787109 aaaah
r3.193492412567139 aaaai

#385
0aaaaa
0aaaab
0aaaac
0aaaad

#390
1aaaaa
1aaaab
1aaaac
1aaaad
r0.7803909182548523 aaaaf
r0.7737057209014893 aaaag
r3.193492412567139 aaaah
r3.355721473693848 aaaai

#395
0aaaaa
0aaaab
0aaaac
0aaaad

#400
1aaaaa
1aaaab
1aaaac
1aaaad
r0.7866085171699524 aaaaf
r0.7803909182548523 aaaag
r3.355721473693848 aaaah
r3.511708498001099 aaaai

#405
0aaaaa
0aaaab
0aaaac
0aaaad

#410
1aaaaa
1aaaab
1aaaac
1aaaad
r0.7923858165740967 aaaaf
r0.7866085171699524 aaaag
r3.511708498001099 aaaah
r3.661566734313965 aaaai

#415
0aaaaa
0aaaab
0aaaac
0aaaad

#420
1aaaaa
1aaaab
1aaaac
1aaaad
r0.7977488040924072 aaaaf
r0.7923858165740967 aaaag
r3.661566734313965 aaaah
r3.805435180664062 aaaai

#425
0aaaaa
0aaaab
0aaaac
0aaaad

#430
1aaaaa
1aaaab
1aaaac
1aaaad
r0.8027223348617554 aaaaf
r0.7977488040924072 aaaag
r3.805435180664062 aaaah
r3.943339824676514 aaaai

#435
0aaaaa
0aaaab
0aaaac
0aaaad

#440
1aaaaa
1aaaab
1aaaac
1aaaad
r0.8073301911354065 aaaaf
r0.8027223348617554 aaaag
r3.943339824676514 aaaah
r4.075467109680176 aaaai

#445
0aaaaa
0aaaab
0aaaac
0aaaad

#450
1aaaaa
1aaaab
1aaaac
1aaaad
r0.81159508228302 aaaaf
r0.8073301911354065 aaaag
r4.075467109680176 aaaah
r4.201953887939453 aaaai

#455
0aaaaa
0aaaab
0aaaac
0aaaad

#460
1aaaaa
1aaaab
1aaaac
1aaaad
r0.8155385255813599 aaaaf
r0.81159508228302 aaaag
r4.201953887939453 aaaah
r4.322897911071777 aaaai

#465
0aaaaa
0aaaab
0aaaac
0aaaad

#470
1aaaaa
1aaaab
1aaaac
1aaaad
r0.8191810846328735 aaaaf
r0.8155385255813599 aaaag
r4.322897911071777 aaaah
r4.43842077255249 aaaai

#475
0aaaaa
0aaaab
0aaaac
0aaaad

#480
1aaaaa
1aaaab
1aaaac
1aaaad
r0.8225423097610474 aaaaf
r0.8191810846328735 aaaag
r4.43842077255249 aaaah
r4.54875373840332 aaaai

#485
0aaaaa
0aaaab
0aaaac
0aaaad

#490
1aaaaa
1aaaab
1aaaac
1aaaad
r0.8256407380104065 aaaaf
r0.8225423097610474 aaaag
r4.54875373840332 aaaah
r4.653996467590332 aaaai

#495
0aaaaa
0aaaab
0aaaac
0aaaad

#500
1aaaaa
1aaaab
1aaaac
1aaaad
r0.8284940123558044 aaaaf
r0.8256407380104065 aaaag
r4.653996467590332 aaaah
r4.754299640655518 aaaai

#505
0aaaaa
0aaaab
0aaaac
0aaaad

#510
1aaaaa
1aaaab
1aaaac
1aaaad
r0.8311188817024231 aaaaf
r0.8284940123558044 aaaag
r4.754299640655518 aaaah
r4.849853992462158 aaaai

#515
0aaaaa
0aaaab
0aaaac
0aaaad

#520
1aaaaa
1aaaab
1aaaac
1aaaad
r0.8335312008857727 aaaaf
r0.8311188817024231 aaaag
r4.849853992462158 aaaah
r4.940783500671387 aaaai

#525
0aaaaa
0aaaab
0aaaac
0aaaad

#530
1aaaaa
1aaaab
1aaaac
1aaaad
r0.8357459902763367 aaaaf
r0.8335312008857727 aaaag
r4.940783500671387 aaaah
r5.027237415313721 aaaai

#535
0aaaaa
0aaaab
0aaaac
0aaaad

#540
1aaaaa
1aaaab
1aaaac
1aaaad
r0.8377774953842163 aaaaf
r0.8357459902763367 aaaag
r5.027237415313721 aaaah
r5.109381675720215 aaaai

#545
0aaaaa
0aaaab
0aaaac
0aaaad

#550
1aaaaa
1aaaab
1aaaac
1aaaad
r0.8396391272544861 aaaaf
r0.8377774953842163 aaaag
r5.109381675720215 aaaah
r5.18735933303833 aaaai

#555
0aaaaa
0aaaab
0aaaac
0aaaad

#560
1aaaaa
1aaaab
1aaaac
1aaaad
r0.8413436412811279 aaaaf
r0.8396391272544861 aaaag
r5.18735933303833 aaaah
r5.261318683624268 aaaai

#565
0aaaaa
0aaaab
0aaaac
0aaaad

#570
1aaaaa
1aaaab
1aaaac
1aaaad
r0.8429030179977417 aaaaf
r0.8413436412811279 aaaag
r5.261318683624268 aaaah
r5.331433773040771 aaaai

#575
0aaaaa
0aaaab
0aaaac
0aaaad

#580
1aaaaa
1aaaab
1aaaac
1aaaad
r0.8443285822868347 aaaaf
r0.8429030179977417 aaaag
r5.331433773040771 aaaah
r5.397802352905273 aaaai

#585
0aaaaa
0aaaab
0aaaac
0aaaad

#590
1aaaaa
1aaaab
1aaaac
1aaaad
r0.8456310629844666 aaaaf
r0.8443285822868347 aaaag
r5.397802352905273 aaaah
r5.460602283477783 aaaai

#595
0aaaaa
0aaaab
0aaaac
0aaaad

#600
1aaaaa
1aaaab
1aaaac
1aaaad
r0.8468205332756042 aaaaf
r0.8456310629844666 aaaag
r5.460602283477783 aaaah
r5.519961357116699 aaaai

#605
0aaaaa
0aaaab
0aaaac
0aaaad

#610
1aaaaa
1aaaab
1aaaac
1aaaad
r0.8479064702987671 aaaaf
r0.8468205332756042 aaaag
r5.519961357116699 aaaah
r5.575979709625244 aaaai

#615
0aaaaa
0aaaab
0aaaac
0aaaad

#620
1aaaaa
1aaaab
1aaaac
1aaaad
r0.8488978147506714 aaaaf
r0.8479064702987671 aaaag
r5.575979709625244 aaaah
r5.628817558288574 aaaai

#625
0aaaaa
0aaaab
0aaaac
0aaaad

#630
1aaaaa
1aaaab
1aaaac
1aaaad
r0.8498029708862305 aaaaf
r0.8488978147506714 aaaag
r5.628817558288574 aaaah
r5.678600788116455 aaaai

#635
0aaaaa
0aaaab
0aaaac
0aaaad

#640
1aaaaa
1aaaab
1aaaac
1aaaad
r0.8506298065185547 aaaaf
r0.8498029708862305 aaaag
r5.678600788116455 aaaah
r5.725439071655273 aaaai

#645
0aaaaa
0aaaab
0aaaac
0aaaad

#650
1aaaaa
1aaaab
1aaaac
1aaaad
r0.8513856530189514 aaaaf
r0.8506298065185547 aaaag
r5.725439071655273 aaaah
r5.76945161819458 aaaai

#655
0aaaaa
0aaaab
0aaaac
0aaaad

#660
1aaaaa
1aaaab
1aaaac
1aaaad
r0.8520775437355042 aaaaf
r0.8513856530189514 aaaag
r5.76945161819458 aaaah
r5.810768127441406 aaaai

#665
0aaaaa
0aaaab
0aaaac
0aaaad

#670
1aaaaa
1aaaab
1aaaac
1aaaad
r0.8527119159698486 aaaaf
r0.8520775437355042 aaaag
r5.810768127441406 aaaah
r5.849529266357422 aaaai

#675
0aaaaa
0aaaab
0aaaac
0aaaad

#680
1aaaaa
1aaaab
1aaaac
1aaaad
r0.853294849395752 aaaaf
r0.8527119159698486 aaaag
r5.849529266357422 aaaah
r5.885755062103271 aaaai

#685
0aaaaa
0aaaab
0aaaac
0aaaad

#690
1aaaaa
1aaaab
1aaaac
1aaaad
r0.8538320660591125 aaaaf
r0.853294849395752 aaaag
r5.885755062103271 aaaah
r5.919636249542236 aaaai

#695
0aaaaa
0aaaab
0aaaac
0aaaad

#700
1aaaaa
1aaaab
1aaaac
1aaaad
r0.8543288111686707 aaaaf
r0.8538320660591125 aaaag
r5.919636249542236 aaaah
r5.951241016387939 aaaai

#705
0aaaaa
0aaaab
0aaaac
0aaaad

#710
1aaaaa
1aaaab
1aaaac
1aaaad
r0.8547900915145874 aaaaf
r0.8543288111686707 aaaag
r5.951241016387939 aaaah
r5.980645179748535 aaaai

#715
0aaaaa
0aaaab
0aaaac
0aaaad

#720
1aaaaa
1aaaab
1aaaac
1aaaad
r0.8552204370498657 aaaaf
r0.8547900915145874 aaaag
r5.980645179748535 aaaah
r6.00800085067749 aaaai

#725
0aaaaa
0aaaab
0aaaac
0aaaad

#730
1aaaaa
1aaaab
1aaaac
1aaaad
r0.8556241989135742 aaaaf
r0.8552204370498657 aaaag
r6.00800085067749 aaaah
r6.033329010009766 aaaai

#735
0aaaaa
0aaaab
0aaaac
0aaaad

#740
1aaaaa
1aaaab
1aaaac
1aaaad
r0.8560053706169128 aaaaf
r0.8556241989135742 aaaag
r6.033329010009766 aaaah
r6.056801795959473 aaaai

#745
0aaaaa
0aaaab
0aaaac
0aaaad

#750
1aaaaa
1aaaab
1aaaac
1aaaad
r0.8563676476478577 aaaaf
r0.8560053706169128 aaaag
r6.056801795959473 aaaah
r6.078421592712402 aaaai

#755
0aaaaa
0aaaab
0aaaac
0aaaad

#760
1aaaaa
1aaaab
1aaaac
1aaaad
r0.8567144274711609 aaaaf
r0.8563676476478577 aaaag
r6.078421592712402 aaaah
r6.098300457000732 aaaai

#765
0aaaaa
0aaaab
0aaaac
0aaaad

#770
1aaaaa
1aaaab
1aaaac
1aaaad
r0.8570488691329956 aaaaf
r0.8567144274711609 aaaag
r6.098300457000732 aaaah
r6.116521835327148 aaaai

#775
0aaaaa
0aaaab
0aaaac
0aaaad

#780
1aaaaa
1aaaab
1aaaac
1aaaad
r0.8573739528656006 aaaaf
r0.8570488691329956 aaaag
r6.116521835327148 aaaah
r6.133178234100342 aaaai

#785
0aaaaa
0aaaab
0aaaac
0aaaad

#790
1aaaaa
1aaaab
1aaaac
1aaaad
r0.8576923012733459 aaaaf
r0.8573739528656006 aaaag
r6.133178234100342 aaaah
r6.148331165313721 aaaai

#795
0aaaaa
0aaaab
0aaaac
0aaaad

#800
1aaaaa
1aaaab
1aaaac
1aaaad
r0.8580064177513123 aaaaf
r0.8576923012733459 aaaag
r6.148331165313721 aaaah
r6.162014484405518 aaaai

#805
0aaaaa
0aaaab
0aaaac
0aaaad

#810
1aaaaa
1aaaab
1aaaac
1aaaad
r0.8583186268806458 aaaaf
r0.8580064177513123 aaaag
r6.162014484405518 aaaah
r6.174368858337402 aaaai

#815
0aaaaa
0aaaab
0aaaac
0aaaad

#820
1aaaaa
1aaaab
1aaaac
1aaaad
r0.8586309552192688 aaaaf
r0.8583186268806458 aaaag
r6.174368858337402 aaaah
r6.185405254364014 aaaai

#825
0aaaaa
0aaaab
0aaaac
0aaaad

#830
1aaaaa
1aaaab
1aaaac
1aaaad
r0.8589453101158142 aaaaf
r0.8586309552192688 aaaag
r6.185405254364014 aaaah
r6.195170402526855 aaaai

#835
0aaaaa
0aaaab
0aaaac
0aaaad

#840
1aaaaa
1aaaab
1aaaac
1aaaad
r0.8592633605003357 aaaaf
r0.8589453101158142 aaaag
r6.195170402526855 aaaah
r6.203784465789795 aaaai

#845
0aaaaa
0aaaab
0aaaac
0aaaad

#850
1aaaaa
1aaaab
1aaaac
1aaaad
r0.8595867156982422 aaaaf
r0.8592633605003357 aaaag
r6.203784465789795 aaaah
r6.211270332336426 aaaai

#855
0aaaaa
0aaaab
0aaaac
0aaaad

#860
1aaaaa
1aaaab
1aaaac
1aaaad
r0.8599168062210083 aaaaf
r0.8595867156982422 aaaag
r6.211270332336426 aaaah
r6.217720985412598 aaaai

#865
0aaaaa
0aaaab
0aaaac
0aaaad

#870
1aaaaa
1aaaab
1aaaac
1aaaad
r0.8602548837661743 aaaaf
r0.8599168062210083 aaaag
r6.217720985412598 aaaah
r6.223135471343994 aaaai

#875
0aaaaa
0aaaab
0aaaac
0aaaad

#880
1aaaaa
1aaaab
1aaaac
1aaaad
r0.860602080821991 aaaaf
r0.8602548837661743 aaaag
r6.223135471343994 aaaah
r6.227577686309814 aaaai

#885
0aaaaa
0aaaab
0aaaac
0aaaad

#890
1aaaaa
1aaaab
1aaaac
1aaaad
r0.8609594106674194 aaaaf
r0.860602080821991 aaaag
r6.227577686309814 aaaah
r6.231119155883789 aaaai

#895
0aaaaa
0aaaab
0aaaac
0aaaad

#900
1aaaaa
1aaaab
1aaaac
1aaaad
r0.8613277673721313 aaaaf
r0.8609594106674194 aaaag
r6.231119155883789 aaaah
r6.233799934387207 aaaai

#905
0aaaaa
0aaaab
0aaaac
0aaaad

#910
1aaaaa
1aaaab
1aaaac
1aaaad
r0.8617079257965088 aaaaf
r0.8613277673721313 aaaag
r6.233799934387207 aaaah
r6.235660076141357 aaaai

#915
0aaaaa
0aaaab
0aaaac
0aaaad

#920
1aaaaa
1aaaab
1aaaac
1aaaad
r0.8621006011962891 aaaaf
r0.8617079257965088 aaaag
r6.235660076141357 aaaah
r6.236743927001953 aaaai

#925
0aaaaa
0aaaab
0aaaac
0aaaad

#930
1aaaaa
1aaaab
1aaaac
1aaaad
r0.8625063300132751 aaaaf
r0.8621006011962891 aaaag
r6.236743927001953 aaaah
r6.237102031707764 aaaai

#935
0aaaaa
0aaaab
0aaaac
0aaaad

#940
1aaaaa
1aaaab
1aaaac
1aaaad
r0.86292564868927 aaaaf
r0.8625063300132751 aaaag
r6.237102031707764 aaaah
r6.236748218536377 aaaai

#945
0aaaaa
0aaaab
0aaaac
0aaaad

#950
1aaaaa
1aaaab
1aaaac
1aaaad
r0.8633589148521423 aaaaf
r0.86292564868927 aaaag
r6.236748218536377 aaaah
r6.235766887664795 aaaai

#955
0aaaaa
0aaaab
0aaaac
0aaaad

#960
1aaaaa
1aaaab
1aaaac
1aaaad
r0.8638064861297607 aaaaf
r0.8633589148521423 aaaag
r6.235766887664795 aaaah
r6.234146118164062 aaaai

#965
0aaaaa
0aaaab
0aaaac
0aaaad

#970
1aaaaa
1aaaab
1aaaac
1aaaad
r0.8642686605453491 aaaaf
r0.8638064861297607 aaaag
r6.234146118164062 aaaah
r6.231973648071289 aaaai

#975
0aaaaa
0aaaab
0aaaac
0aaaad

#980
1aaaaa
1aaaab
1aaaac
1aaaad
r0.864745557308197 aaaaf
r0.8642686605453491 aaaag
r6.231973648071289 aaaah
r6.229239463806152 aaaai

#985
0aaaaa
0aaaab
0aaaac
0aaaad

#990
1aaaaa
1aaaab
1aaaac
1aaaad
r0.8652373552322388 aaaaf
r0.864745557308197 aaaag
r6.229239463806152 aaaah
r6.225970268249512 aaaai

#995
0aaaaa
0aaaab
0aaaac
0aaaad

#1000
1aaaaa
1aaaab
1aaaac
1aaaad
r0.8657441139221191 aaaaf
r0.8652373552322388 aaaag
r6.225970268249512 aaaah
r6.222259998321533 aaaai

#1005
0aaaaa
0aaaab
0aaaac
0aaaad

#1010
1aaaaa
1aaaab
1aaaac
1aaaad
r0.8662658333778381 aaaaf
r0.8657441139221191 aaaag
r6.222259998321533 aaaah
r6.218069076538086 aaaai

#1015
0aaaaa
0aaaab
0aaaac
0aaaad

#1020
1aaaaa
1aaaab
1aaaac
1aaaad
r0.8668025135993958 aaaaf
r0.8662658333778381 aaaag
r6.218069076538086 aaaah
r6.213459968566895 aaaai

#1025
0aaaaa
0aaaab
0aaaac
0aaaad

#1030
1aaaaa
1aaaab
1aaaac
1aaaad
r0.8673540949821472 aaaaf
r0.8668025135993958 aaaag
r6.213459968566895 aaaah
r6.208464622497559 aaaai

#1035
0aaaaa
0aaaab
0aaaac
0aaaad

#1040
1aaaaa
1aaaab
1aaaac
1aaaad
r0.867920458316803 aaaaf
r0.8673540949821472 aaaag
r6.208464622497559 aaaah
r6.203081607818604 aaaai

#1045
0aaaaa
0aaaab
0aaaac
0aaaad

#1050
1aaaaa
1aaaab
1aaaac
1aaaad
r0.8685014247894287 aaaaf
r0.867920458316803 aaaag
r6.203081607818604 aaaah
r6.197342872619629 aaaai

#1055
0aaaaa
0aaaab
0aaaac
0aaaad

#1060
1aaaaa
1aaaab
1aaaac
1aaaad
r0.8690968751907349 aaaaf
r0.8685014247894287 aaaag
r6.197342872619629 aaaah
r6.191281795501709 aaaai

#1065
0aaaaa
0aaaab
0aaaac
0aaaad

#1070
1aaaaa
1aaaab
1aaaac
1aaaad
r0.8697065114974976 aaaaf
r0.8690968751907349 aaaag
r6.191281795501709 aaaah
r6.184934616088867 aaaai

#1075
0aaaaa
0aaaab
0aaaac
0aaaad

#1080
1aaaaa
1aaaab
1aaaac
1aaaad
r0.8703300952911377 aaaaf
r0.8697065114974976 aaaag
r6.184934616088867 aaaah
r6.178264141082764 aaaai

#1085
0aaaaa
0aaaab
0aaaac
0aaaad

#1090
1aaaaa
1aaaab
1aaaac
1aaaad
r0.8709673881530762 aaaaf
r0.8703300952911377 aaaag
r6.178264141082764 aaaah
r6.171382427215576 aaaai

#1095
0aaaaa
0aaaab
0aaaac
0aaaad

#1100
1aaaaa
1aaaab
1aaaac
1aaaad
r0.8716180920600891 aaaaf
r0.8709673881530762 aaaag
r6.171382427215576 aaaah
r6.164256572723389 aaaai

#1105
0aaaaa
0aaaab
0aaaac
0aaaad

#1110
1aaaaa
1aaaab
1aaaac
1aaaad
r0.8722819089889526 aaaaf
r0.8716180920600891 aaaag
r6.164256572723389 aaaah
r6.15688943862915 aaaai

#1115
0aaaaa
0aaaab
0aaaac
0aaaad

#1120
1aaaaa
1aaaab
1aaaac
1aaaad
r0.8729584813117981 aaaaf
r0.8722819089889526 aaaag
r6.15688943862915 aaaah
r6.149320125579834 aaaai

#1125
0aaaaa
0aaaab
0aaaac
0aaaad

#1130
1aaaaa
1aaaab
1aaaac
1aaaad
r0.8736474514007568 aaaaf
r0.8729584813117981 aaaag
r6.149320125579834 aaaah
r6.14155387878418 aaaai

#1135
0aaaaa
0aaaab
0aaaac
0aaaad

#1140
1aaaaa
1aaaab
1aaaac
1aaaad
r0.874348521232605 aaaaf
r0.8736474514007568 aaaag
r6.14155387878418 aaaah
r6.133628368377686 aaaai

#1145
0aaaaa
0aaaab
0aaaac
0aaaad

#1150
1aaaaa
1aaaab
1aaaac
1aaaad
r0.8750612735748291 aaaaf
r0.874348521232605 aaaag
r6.133628368377686 aaaah
r6.125551700592041 aaaai

#1155
0aaaaa
0aaaab
0aaaac
0aaaad

#1160
1aaaaa
1aaaab
1aaaac
1aaaad
r0.8757852911949158 aaaaf
r0.8750612735748291 aaaag
r6.125551700592041 aaaah
r6.117295265197754 aaaai

#1165
0aaaaa
0aaaab
0aaaac
0aaaad

#1170
1aaaaa
1aaaab
1aaaac
1aaaad
r0.8765202164649963 aaaaf
r0.8757852911949158 aaaag
r6.117295265197754 aaaah
r6.108933448791504 aaaai

#1175
0aaaaa
0aaaab
0aaaac
0aaaad

#1180
1aaaaa
1aaaab
1aaaac
1aaaad
r0.8772656321525574 aaaaf
r0.8765202164649963 aaaag
r6.108933448791504 aaaah
r6.100472927093506 aaaai

#1185
0aaaaa
0aaaab
0aaaac
0aaaad

#1190
1aaaaa
1aaaab
1aaaac
1aaaad
r0.8780211210250854 aaaaf
r0.8772656321525574 aaaag
r6.100472927093506 aaaah
r6.091888904571533 aaaai

#1195
0aaaaa
0aaaab
0aaaac
0aaaad

#1200
1aaaaa
1aaaab
1aaaac
1aaaad
r0.8787863254547119 aaaaf
r0.8780211210250854 aaaag
r6.091888904571533 aaaah
r6.083216667175293 aaaai

#1205
0aaaaa
0aaaab
0aaaac
0aaaad

#1210
1aaaaa
1aaaab
1aaaac
1aaaad
r0.8795607686042786 aaaaf
r0.8787863254547119 aaaag
r6.083216667175293 aaaah
r6.07447338104248 aaaai

#1215
0aaaaa
0aaaab
0aaaac
0aaaad

#1220
1aaaaa
1aaaab
1aaaac
1aaaad
r0.8803440928459167 aaaaf
r0.8795607686042786 aaaag
r6.07447338104248 aaaah
r6.065629005432129 aaaai

#1225
0aaaaa
0aaaab
0aaaac
0aaaad

#1230
1aaaaa
1aaaab
1aaaac
1aaaad
r0.8811358213424683 aaaaf
r0.8803440928459167 aaaag
r6.065629005432129 aaaah
r6.056758403778076 aaaai

#1235
0aaaaa
0aaaab
0aaaac
0aaaad

#1240
1aaaaa
1aaaab
1aaaac
1aaaad
r0.8819355964660645 aaaaf
r0.8811358213424683 aaaag
r6.056758403778076 aaaah
r6.04780387878418 aaaai

#1245
0aaaaa
0aaaab
0aaaac
0aaaad

#1250
1aaaaa
1aaaab
1aaaac
1aaaad
r0.8827430009841919 aaaaf
r0.8819355964660645 aaaag
r6.04780387878418 aaaah
r6.038838863372803 aaaai

#1255
0aaaaa
0aaaab
0aaaac
0aaaad

#1260
1aaaaa
1aaaab
1aaaac
1aaaad
r0.8835575580596924 aaaaf
r0.8827430009841919 aaaag
r6.038838863372803 aaaah
r6.029805183410645 aaaai

#1265
0aaaaa
0aaaab
0aaaac
0aaaad

