code/build/project/IOSC_Wave.vcd
$date
     Dec 20, 2022       11:22:17
$end

$version
 SystemC 2.3.3-Accellera --- Sep  8 2022 15:04:50
$end

$timescale
     1 ns
$end

$scope module SystemC $end
$var wire    1  aaaaa  clock       $end
$var wire    1  aaaab  reset       $end
$var real    1  aaaac  q       $end
$var real    1  aaaad  snr_q       $end
$var real    1  aaaae  motor_tau       $end
$var real    1  aaaaf  ctl_motor_tau       $end
$var real    1  aaaag  q_target       $end
$upscope $end
$enddefinitions  $end

$comment
All initial values are dumped below at time 0 sec = 0 timescale units.
$end

$dumpvars
1aaaaa
0aaaab
r0 aaaac
r0 aaaad
r0 aaaae
r0 aaaaf
r1 aaaag
$end

#5
0aaaaa

#10
1aaaaa

#15
0aaaaa

#20
1aaaaa
r-1.239271023223409e-05 aaaac
r5.001999855041504 aaaaf

#25
0aaaaa

#30
1aaaaa
r-3.704711343743838e-05 aaaac
r-1.239271023223409e-05 aaaad
r5.001999855041504 aaaae

#35
0aaaaa

#40
1aaaaa
r-6.744939310010523e-05 aaaac
r-3.704711343743838e-05 aaaad
r5.003061771392822 aaaaf

#45
0aaaaa

#50
1aaaaa
r-0.0001035991735989228 aaaac
r-6.744939310010523e-05 aaaad
r5.003061771392822 aaaae
r5.004185676574707 aaaaf

#55
0aaaaa

#60
1aaaaa
r-0.0001454947050660849 aaaac
r-0.0001035991735989228 aaaad
r5.004185676574707 aaaae
r5.005337715148926 aaaaf

#65
0aaaaa

#70
1aaaaa
r-0.0001931341394083574 aaaac
r-0.0001454947050660849 aaaad
r5.005337715148926 aaaae
r5.006517887115479 aaaaf

#75
0aaaaa

#80
1aaaaa
r-0.0002465156139805913 aaaac
r-0.0001931341394083574 aaaad
r5.006517887115479 aaaae
r5.00772762298584 aaaaf

#85
0aaaaa

#90
1aaaaa
r-0.0003056371933780611 aaaac
r-0.0002465156139805913 aaaad
r5.00772762298584 aaaae
r5.008965969085693 aaaaf

#95
0aaaaa

#100
1aaaaa
r-0.0003704969421960413 aaaac
r-0.0003056371933780611 aaaad
r5.008965969085693 aaaae
r5.010233402252197 aaaaf

#105
0aaaaa

#110
1aaaaa
r-0.0004410928813740611 aaaac
r-0.0003704969421960413 aaaad
r5.010233402252197 aaaae
r5.011529445648193 aaaaf

#115
0aaaaa

#120
1aaaaa
r-0.0005174229736439884 aaaac
r-0.0004410928813740611 aaaad
r5.011529445648193 aaaae
r5.012854099273682 aaaaf

#125
0aaaaa

#130
1aaaaa
r-0.0005994851817376912 aaaac
r-0.0005174229736439884 aaaad
r5.012854099273682 aaaae
r5.014207363128662 aaaaf

#135
0aaaaa

#140
1aaaaa
r-0.0006872774101793766 aaaac
r-0.0005994851817376912 aaaad
r5.014207363128662 aaaae
r5.015589237213135 aaaaf

#145
0aaaaa

#150
1aaaaa
r-0.0007807975052855909 aaaac
r-0.0006872774101793766 aaaad
r5.015589237213135 aaaae
r5.017000675201416 aaaaf

#155
0aaaaa

#160
1aaaaa
r-0.0008800433133728802 aaaac
r-0.0007807975052855909 aaaad
r5.017000675201416 aaaae
r5.018439769744873 aaaaf

#165
0aaaaa

#170
1aaaaa
r-0.0009850126225501299 aaaac
r-0.0008800433133728802 aaaad
r5.018439769744873 aaaae
r5.019908905029297 aaaaf

#175
0aaaaa

#180
1aaaaa
r-0.001095703104510903 aaaac
r-0.0009850126225501299 aaaad
r5.019908905029297 aaaae
r5.021405696868896 aaaaf

#185
0aaaaa

#190
1aaaaa
r-0.001212112605571747 aaaac
r-0.001095703104510903 aaaad
r5.021405696868896 aaaae
r5.022931575775146 aaaaf

#195
0aaaaa

#200
1aaaaa
r-0.001334238681010902 aaaac
r-0.001212112605571747 aaaad
r5.022931575775146 aaaae
r5.024486064910889 aaaaf

#205
0aaaaa

#210
1aaaaa
r-0.001462079002521932 aaaac
r-0.001334238681010902 aaaad
r5.024486064910889 aaaae
r5.026069164276123 aaaaf

#215
0aaaaa

#220
1aaaaa
r-0.001595631241798401 aaaac
r-0.001462079002521932 aaaad
r5.026069164276123 aaaae
r5.02768087387085 aaaaf

#225
0aaaaa

#230
1aaaaa
r-0.001734892837703228 aaaac
r-0.001595631241798401 aaaad
r5.02768087387085 aaaae
r5.029321670532227 aaaaf

#235
0aaaaa

#240
1aaaaa
r-0.001879861461929977 aaaac
r-0.001734892837703228 aaaad
r5.029321670532227 aaaae
r5.030991077423096 aaaaf

#245
0aaaaa

#250
1aaaaa
r-0.002030534436926246 aaaac
r-0.001879861461929977 aaaad
r5.030991077423096 aaaae
r5.032689094543457 aaaaf

#255
0aaaaa

#260
1aaaaa
r-0.002186909317970276 aaaac
r-0.002030534436926246 aaaad
r5.032689094543457 aaaae
r5.034415721893311 aaaaf

#265
0aaaaa

#270
1aaaaa
r-0.002348983660340309 aaaac
r-0.002186909317970276 aaaad
r5.034415721893311 aaaae
r5.036170959472656 aaaaf

#275
0aaaaa

#280
1aaaaa
r-0.002516754670068622 aaaac
r-0.002348983660340309 aaaad
r5.036170959472656 aaaae
r5.037955284118652 aaaaf

#285
0aaaaa

#290
1aaaaa
r-0.00269021955318749 aaaac
r-0.002516754670068622 aaaad
r5.037955284118652 aaaae
r5.039768218994141 aaaaf

#295
0aaaaa

#300
1aaaaa
r-0.002869375748559833 aaaac
r-0.00269021955318749 aaaad
r5.039768218994141 aaaae
r5.041609287261963 aaaaf

#305
0aaaaa

#310
1aaaaa
r-0.003054220695048571 aaaac
r-0.002869375748559833 aaaad
r5.041609287261963 aaaae
r5.043479442596436 aaaaf

#315
0aaaaa

#320
1aaaaa
r-0.003244751365855336 aaaac
r-0.003054220695048571 aaaad
r5.043479442596436 aaaae
r5.0453782081604 aaaaf

#325
0aaaaa

#330
1aaaaa
r-0.003440964967012405 aaaac
r-0.003244751365855336 aaaad
r5.0453782081604 aaaae
r5.047305583953857 aaaaf

#335
0aaaaa

#340
1aaaaa
r-0.003642858937382698 aaaac
r-0.003440964967012405 aaaad
r5.047305583953857 aaaae
r5.049261569976807 aaaaf

#345
0aaaaa

#350
1aaaaa
r-0.003850430017337203 aaaac
r-0.003642858937382698 aaaad
r5.049261569976807 aaaae
r5.05124568939209 aaaaf

#355
0aaaaa

#360
1aaaaa
r-0.00406367564573884 aaaac
r-0.003850430017337203 aaaad
r5.05124568939209 aaaae
r5.053259372711182 aaaaf

#365
0aaaaa

#370
1aaaaa
r-0.004282592330127954 aaaac
r-0.00406367564573884 aaaad
r5.053259372711182 aaaae
r5.055300712585449 aaaaf

#375
0aaaaa

#380
1aaaaa
r-0.004507177509367466 aaaac
r-0.004282592330127954 aaaad
r5.055300712585449 aaaae
r5.057371139526367 aaaaf

#385
0aaaaa

#390
1aaaaa
r-0.004737427923828363 aaaac
r-0.004507177509367466 aaaad
r5.057371139526367 aaaae
r5.059469699859619 aaaaf

#395
0aaaaa

#400
1aaaaa
r-0.004973340779542923 aaaac
r-0.004737427923828363 aaaad
r5.059469699859619 aaaae
r5.061597347259521 aaaaf

#405
0aaaaa

#410
1aaaaa
r-0.005214912816882133 aaaac
r-0.004973340779542923 aaaad
r5.061597347259521 aaaae
r5.063753128051758 aaaaf

#415
0aaaaa

#420
1aaaaa
r-0.005462140776216984 aaaac
r-0.005214912816882133 aaaad
r5.063753128051758 aaaae
r5.065937519073486 aaaaf

#425
0aaaaa

#430
1aaaaa
r-0.005715021397918463 aaaac
r-0.005462140776216984 aaaad
r5.065937519073486 aaaae
r5.068150997161865 aaaaf

#435
0aaaaa

#440
1aaaaa
r-0.005973551422357559 aaaac
r-0.005715021397918463 aaaad
r5.068150997161865 aaaae
r5.070393085479736 aaaaf

#445
0aaaaa

#450
1aaaaa
r-0.006237728055566549 aaaac
r-0.005973551422357559 aaaad
r5.070393085479736 aaaae
r5.072662830352783 aaaaf

#455
0aaaaa

#460
1aaaaa
r-0.006507547572255135 aaaac
r-0.006237728055566549 aaaad
r5.072662830352783 aaaae
r5.074962139129639 aaaaf

#465
0aaaaa

#470
1aaaaa
r-0.006783006712794304 aaaac
r-0.006507547572255135 aaaad
r5.074962139129639 aaaae
r5.07728910446167 aaaaf

#475
0aaaaa

#480
1aaaaa
r-0.007064102217555046 aaaac
r-0.006783006712794304 aaaad
r5.07728910446167 aaaae
r5.079644203186035 aaaaf

#485
0aaaaa

#490
1aaaaa
r-0.007350830361247063 aaaac
r-0.007064102217555046 aaaad
r5.079644203186035 aaaae
r5.082028388977051 aaaaf

#495
0aaaaa

#500
1aaaaa
r-0.007643187884241343 aaaac
r-0.007350830361247063 aaaad
r5.082028388977051 aaaae
r5.0844407081604 aaaaf

#505
0aaaaa

#510
1aaaaa
r-0.007941171526908875 aaaac
r-0.007643187884241343 aaaad
r5.0844407081604 aaaae
r5.0868821144104 aaaaf

#515
0aaaaa

#520
1aaaaa
r-0.008244777098298073 aaaac
r-0.007941171526908875 aaaad
r5.0868821144104 aaaae
r5.089351654052734 aaaaf

#525
0aaaaa

#530
1aaaaa
r-0.008554002270102501 aaaac
r-0.008244777098298073 aaaad
r5.089351654052734 aaaae
r5.091849327087402 aaaaf

#535
0aaaaa

#540
1aaaaa
r-0.008868842385709286 aaaac
r-0.008554002270102501 aaaad
r5.091849327087402 aaaae
r5.094375133514404 aaaaf

#545
0aaaaa

#550
1aaaaa
r-0.009189293719828129 aaaac
r-0.008868842385709286 aaaad
r5.094375133514404 aaaae
r5.096930027008057 aaaaf

#555
0aaaaa

#560
1aaaaa
r-0.009515352547168732 aaaac
r-0.009189293719828129 aaaad
r5.096930027008057 aaaae
r5.099513053894043 aaaaf

#565
0aaaaa

#570
1aaaaa
r-0.009847016073763371 aaaac
r-0.009515352547168732 aaaad
r5.099513053894043 aaaae
r5.102124691009521 aaaaf

#575
0aaaaa

#580
1aaaaa
r-0.01018427964299917 aaaac
r-0.009847016073763371 aaaad
r5.102124691009521 aaaae
r5.104764938354492 aaaaf

#585
0aaaaa

#590
1aaaaa
r-0.01052713952958584 aaaac
r-0.01018427964299917 aaaad
r5.104764938354492 aaaae
r5.107432842254639 aaaaf

#595
0aaaaa

#600
1aaaaa
r-0.01087559200823307 aaaac
r-0.01052713952958584 aaaad
r5.107432842254639 aaaae
r5.110129356384277 aaaaf

#605
0aaaaa

#610
1aaaaa
r-0.01122963335365057 aaaac
r-0.01087559200823307 aaaad
r5.110129356384277 aaaae
r5.11285400390625 aaaaf

#615
0aaaaa

#620
1aaaaa
r-0.01158925984054804 aaaac
r-0.01122963335365057 aaaad
r5.11285400390625 aaaae
r5.115607261657715 aaaaf

#625
0aaaaa

#630
1aaaaa
r-0.0119544668123126 aaaac
r-0.01158925984054804 aaaad
r5.115607261657715 aaaae
r5.118388652801514 aaaaf

#635
0aaaaa

#640
1aaaaa
r-0.01232525147497654 aaaac
r-0.0119544668123126 aaaad
r5.118388652801514 aaaae
r5.121198177337646 aaaaf

#645
0aaaaa

#650
1aaaaa
r-0.0127016082406044 aaaac
r-0.01232525147497654 aaaad
r5.121198177337646 aaaae
r5.124036312103271 aaaaf

#655
0aaaaa

#660
1aaaaa
r-0.01308353431522846 aaaac
r-0.0127016082406044 aaaad
r5.124036312103271 aaaae
r5.126903057098389 aaaaf

#665
0aaaaa

#670
1aaaaa
r-0.01347102504223585 aaaac
r-0.01308353431522846 aaaad
r5.126903057098389 aaaae
r5.129796981811523 aaaaf

#675
0aaaaa

#680
1aaaaa
r-0.01386407576501369 aaaac
r-0.01347102504223585 aaaad
r5.129796981811523 aaaae
r5.132719993591309 aaaaf

#685
0aaaaa

#690
1aaaaa
r-0.01426268275827169 aaaac
r-0.01386407576501369 aaaad
r5.132719993591309 aaaae
r5.13567066192627 aaaaf

#695
0aaaaa

#700
1aaaaa
r-0.01466684229671955 aaaac
r-0.01426268275827169 aaaad
r5.13567066192627 aaaae
r5.138649940490723 aaaaf

#705
0aaaaa

#710
1aaaaa
r-0.01507654972374439 aaaac
r-0.01466684229671955 aaaad
r5.138649940490723 aaaae
r5.14165735244751 aaaaf

#715
0aaaaa

#720
1aaaaa
r-0.01549180038273335 aaaac
r-0.01507654972374439 aaaad
r5.14165735244751 aaaae
r5.144692420959473 aaaaf

#725
0aaaaa

#730
1aaaaa
r-0.01591259054839611 aaaac
r-0.01549180038273335 aaaad
r5.144692420959473 aaaae
r5.147756099700928 aaaaf

#735
0aaaaa

#740
1aaaaa
r-0.01633891463279724 aaaac
r-0.01591259054839611 aaaad
r5.147756099700928 aaaae
r5.150848388671875 aaaaf

#745
0aaaaa

#750
1aaaaa
r-0.01677076891064644 aaaac
r-0.01633891463279724 aaaad
r5.150848388671875 aaaae
r5.153967380523682 aaaaf

#755
0aaaaa

#760
1aaaaa
r-0.0172081496566534 aaaac
r-0.01677076891064644 aaaad
r5.153967380523682 aaaae
r5.157115936279297 aaaaf

#765
0aaaaa

#770
1aaaaa
r-0.01765105128288269 aaaac
r-0.0172081496566534 aaaad
r5.157115936279297 aaaae
r5.16029167175293 aaaaf

#775
0aaaaa

#780
1aaaaa
r-0.018099470064044 aaaac
r-0.01765105128288269 aaaad
r5.16029167175293 aaaae
r5.163495540618896 aaaaf

#785
0aaaaa

#790
1aaaaa
r-0.01855340041220188 aaaac
r-0.018099470064044 aaaad
r5.163495540618896 aaaae
r5.166728496551514 aaaaf

#795
0aaaaa

#800
1aaaaa
r-0.01901283860206604 aaaac
r-0.01855340041220188 aaaad
r5.166728496551514 aaaae
r5.16998815536499 aaaaf

#805
0aaaaa

#810
1aaaaa
r-0.01947778090834618 aaaac
r-0.01901283860206604 aaaad
r5.16998815536499 aaaae
r5.173276424407959 aaaaf

#815
0aaaaa

#820
1aaaaa
r-0.01994821988046169 aaaac
r-0.01947778090834618 aaaad
r5.173276424407959 aaaae
r5.176592826843262 aaaaf

#825
0aaaaa

#830
1aaaaa
r-0.02042415365576744 aaaac
r-0.01994821988046169 aaaad
r5.176592826843262 aaaae
r5.17993688583374 aaaaf

#835
0aaaaa

#840
1aaaaa
r-0.02090557478368282 aaaac
r-0.02042415365576744 aaaad
r5.17993688583374 aaaae
r5.183309078216553 aaaaf

#845
0aaaaa

#850
1aaaaa
r-0.02139247953891754 aaaac
r-0.02090557478368282 aaaad
r5.183309078216553 aaaae
r5.186708927154541 aaaaf

#855
0aaaaa

#860
1aaaaa
r-0.0218848641961813 aaaac
r-0.02139247953891754 aaaad
r5.186708927154541 aaaae
r5.190137386322021 aaaaf

#865
0aaaaa

#870
1aaaaa
r-0.02238272316753864 aaaac
r-0.0218848641961813 aaaad
r5.190137386322021 aaaae
r5.19359302520752 aaaaf

#875
0aaaaa

#880
1aaaaa
r-0.02288605086505413 aaaac
r-0.02238272316753864 aaaad
r5.19359302520752 aaaae
r5.19707727432251 aaaaf

#885
0aaaaa

#890
1aaaaa
r-0.02339484170079231 aaaac
r-0.02288605086505413 aaaad
r5.19707727432251 aaaae
r5.200588703155518 aaaaf

#895
0aaaaa

#900
1aaaaa
r-0.02390909194946289 aaaac
r-0.02339484170079231 aaaad
r5.200588703155518 aaaae
r5.204128265380859 aaaaf

#905
0aaaaa

#910
1aaaaa
r-0.02442879602313042 aaaac
r-0.02390909194946289 aaaad
r5.204128265380859 aaaae
r5.207695007324219 aaaaf

#915
0aaaaa

#920
1aaaaa
r-0.02495394833385944 aaaac
r-0.02442879602313042 aaaad
r5.207695007324219 aaaae
r5.211290836334229 aaaaf

#925
0aaaaa

#930
1aaaaa
r-0.02548454515635967 aaaac
r-0.02495394833385944 aaaad
r5.211290836334229 aaaae
r5.214913845062256 aaaaf

#935
0aaaaa

#940
1aaaaa
r-0.02602058090269566 aaaac
r-0.02548454515635967 aaaad
r5.214913845062256 aaaae
r5.218564033508301 aaaaf

#945
0aaaaa

#950
1aaaaa
r-0.02656204998493195 aaaac
r-0.02602058090269566 aaaad
r5.218564033508301 aaaae
r5.222242832183838 aaaaf

#955
0aaaaa

#960
1aaaaa
r-0.02710894681513309 aaaac
r-0.02656204998493195 aaaad
r5.222242832183838 aaaae
r5.225948810577393 aaaaf

#965
0aaaaa

#970
1aaaaa
r-0.02766126580536366 aaaac
r-0.02710894681513309 aaaad
r5.225948810577393 aaaae
r5.229683399200439 aaaaf

#975
0aaaaa

#980
1aaaaa
r-0.02821900136768818 aaaac
r-0.02766126580536366 aaaad
r5.229683399200439 aaaae
r5.233444690704346 aaaaf

#985
0aaaaa

#990
1aaaaa
r-0.02878214977681637 aaaac
r-0.02821900136768818 aaaad
r5.233444690704346 aaaae
r5.237234115600586 aaaaf

#995
0aaaaa

#1000
1aaaaa
r-0.02935070358216763 aaaac
r-0.02878214977681637 aaaad
r5.237234115600586 aaaae
r5.241050720214844 aaaaf

#1005
0aaaaa

#1010
1aaaaa
r-0.02992465905845165 aaaac
r-0.02935070358216763 aaaad
r5.241050720214844 aaaae
r5.244894981384277 aaaaf

#1015
0aaaaa

#1020
1aaaaa
r-0.03050400875508785 aaaac
r-0.02992465905845165 aaaad
r5.244894981384277 aaaae
r5.248767375946045 aaaaf

#1025
0aaaaa

#1030
1aaaaa
r-0.03108874894678593 aaaac
r-0.03050400875508785 aaaad
r5.248767375946045 aaaae
r5.252666473388672 aaaaf

#1035
0aaaaa

#1040
1aaaaa
r-0.03167887404561043 aaaac
r-0.03108874894678593 aaaad
r5.252666473388672 aaaae
r5.256594181060791 aaaaf

#1045
0aaaaa

#1050
1aaaaa
r-0.03227437660098076 aaaac
r-0.03167887404561043 aaaad
r5.256594181060791 aaaae
r5.260549068450928 aaaaf

#1055
0aaaaa

#1060
1aaaaa
r-0.03287525102496147 aaaac
r-0.03227437660098076 aaaad
r5.260549068450928 aaaae
r5.26453161239624 aaaaf

#1065
0aaaaa

#1070
1aaaaa
r-0.03348149359226227 aaaac
r-0.03287525102496147 aaaad
r5.26453161239624 aaaae
r5.268540859222412 aaaaf

#1075
0aaaaa

#1080
1aaaaa
r-0.03409309685230255 aaaac
r-0.03348149359226227 aaaad
r5.268540859222412 aaaae
r5.272578239440918 aaaaf

#1085
0aaaaa

#1090
1aaaaa
r-0.03471005707979202 aaaac
r-0.03409309685230255 aaaad
r5.272578239440918 aaaae
r5.2766432762146 aaaaf

#1095
0aaaaa

#1100
1aaaaa
r-0.03533236682415009 aaaac
r-0.03471005707979202 aaaad
r5.2766432762146 aaaae
r5.280735015869141 aaaaf

#1105
0aaaaa

#1110
1aaaaa
r-0.03596001863479614 aaaac
r-0.03533236682415009 aaaad
r5.280735015869141 aaaae
r5.284854412078857 aaaaf

#1115
0aaaaa

#1120
1aaaaa
r-0.0365930087864399 aaaac
r-0.03596001863479614 aaaad
r5.284854412078857 aaaae
r5.289000988006592 aaaaf

#1125
0aaaaa

#1130
1aaaaa
r-0.03723132982850075 aaaac
r-0.0365930087864399 aaaad
r5.289000988006592 aaaae
r5.29317569732666 aaaaf

#1135
0aaaaa

#1140
1aaaaa
r-0.0378749780356884 aaaac
r-0.03723132982850075 aaaad
r5.29317569732666 aaaae
r5.297377109527588 aaaaf

#1145
0aaaaa

#1150
1aaaaa
r-0.03852394595742226 aaaac
r-0.0378749780356884 aaaad
r5.297377109527588 aaaae
r5.301606178283691 aaaaf

#1155
0aaaaa

#1160
1aaaaa
r-0.03917822614312172 aaaac
r-0.03852394595742226 aaaad
r5.301606178283691 aaaae
r5.305862426757812 aaaaf

#1165
0aaaaa

#1170
1aaaaa
r-0.03983781486749649 aaaac
r-0.03917822614312172 aaaad
r5.305862426757812 aaaae
r5.310145378112793 aaaaf

#1175
0aaaaa

#1180
1aaaaa
r-0.04050270467996597 aaaac
r-0.03983781486749649 aaaad
r5.310145378112793 aaaae
r5.314456462860107 aaaaf

#1185
0aaaaa

#1190
1aaaaa
r-0.04117288812994957 aaaac
r-0.04050270467996597 aaaad
r5.314456462860107 aaaae
r5.318794250488281 aaaaf

#1195
0aaaaa

#1200
1aaaaa
r-0.04184836149215698 aaaac
r-0.04117288812994957 aaaad
r5.318794250488281 aaaae
r5.323158740997314 aaaaf

#1205
0aaaaa

#1210
1aaaaa
r-0.04252911731600761 aaaac
r-0.04184836149215698 aaaad
r5.323158740997314 aaaae
r5.327550888061523 aaaaf

#1215
0aaaaa

#1220
1aaaaa
r-0.04321514815092087 aaaac
r-0.04252911731600761 aaaad
r5.327550888061523 aaaae
r5.33197021484375 aaaaf

#1225
0aaaaa

#1230
1aaaaa
r-0.04390645027160645 aaaac
r-0.04321514815092087 aaaad
r5.33197021484375 aaaae
r5.336416721343994 aaaaf

#1235
0aaaaa

#1240
1aaaaa
r-0.04460301622748375 aaaac
r-0.04390645027160645 aaaad
r5.336416721343994 aaaae
r5.340889930725098 aaaaf

#1245
0aaaaa

#1250
1aaaaa
r-0.04530483856797218 aaaac
r-0.04460301622748375 aaaad
r5.340889930725098 aaaae
r5.345390319824219 aaaaf

#1255
0aaaaa

#1260
1aaaaa
r-0.04601190984249115 aaaac
r-0.04530483856797218 aaaad
r5.345390319824219 aaaae
r5.349917411804199 aaaaf

#1265
0aaaaa

#1270
1aaaaa
r-0.04672422260046005 aaaac
r-0.04601190984249115 aaaad
r5.349917411804199 aaaae
r5.354472160339355 aaaaf

#1275
0aaaaa

#1280
1aaaaa
r-0.04744177311658859 aaaac
r-0.04672422260046005 aaaad
r5.354472160339355 aaaae
r5.359053611755371 aaaaf

#1285
0aaaaa

#1290
1aaaaa
r-0.04816455394029617 aaaac
r-0.04744177311658859 aaaad
r5.359053611755371 aaaae
r5.363661766052246 aaaaf

#1295
0aaaaa

#1300
1aaaaa
r-0.0488925576210022 aaaac
r-0.04816455394029617 aaaad
r5.363661766052246 aaaae
r5.368297100067139 aaaaf

#1305
0aaaaa

#1310
1aaaaa
r-0.04962577670812607 aaaac
r-0.0488925576210022 aaaad
r5.368297100067139 aaaae
r5.372959613800049 aaaaf

#1315
0aaaaa

#1320
1aaaaa
r-0.05036420747637749 aaaac
r-0.04962577670812607 aaaad
r5.372959613800049 aaaae
r5.37764835357666 aaaaf

#1325
0aaaaa

#1330
1aaaaa
r-0.05110783874988556 aaaac
r-0.05036420747637749 aaaad
r5.37764835357666 aaaae
r5.382364273071289 aaaaf

#1335
0aaaaa

#1340
1aaaaa
r-0.05185666680335999 aaaac
r-0.05110783874988556 aaaad
r5.382364273071289 aaaae
r5.387107372283936 aaaaf

#1345
0aaaaa

#1350
1aaaaa
r-0.05261068418622017 aaaac
r-0.05185666680335999 aaaad
r5.387107372283936 aaaae
r5.391876220703125 aaaaf

#1355
0aaaaa

#1360
1aaaaa
r-0.05336988344788551 aaaac
r-0.05261068418622017 aaaad
r5.391876220703125 aaaae
r5.396671772003174 aaaaf

#1365
0aaaaa

#1370
1aaaaa
r-0.05413425713777542 aaaac
r-0.05336988344788551 aaaad
r5.396671772003174 aaaae
r5.401494026184082 aaaaf

#1375
0aaaaa

#1380
1aaaaa
r-0.05490380153059959 aaaac
r-0.05413425713777542 aaaad
r5.401494026184082 aaaae
r5.406344413757324 aaaaf

#1385
0aaaaa

#1390
1aaaaa
r-0.05567850545048714 aaaac
r-0.05490380153059959 aaaad
r5.406344413757324 aaaae
r5.411220073699951 aaaaf

#1395
0aaaaa

#1400
1aaaaa
r-0.05645836144685745 aaaac
r-0.05567850545048714 aaaad
r5.411220073699951 aaaae
r5.416122436523438 aaaaf

#1405
0aaaaa

#1410
1aaaaa
r-0.05724336579442024 aaaac
r-0.05645836144685745 aaaad
r5.416122436523438 aaaae
r5.421051502227783 aaaaf

#1415
0aaaaa

#1420
1aaaaa
r-0.05803350731730461 aaaac
r-0.05724336579442024 aaaad
r5.421051502227783 aaaae
r5.426007747650146 aaaaf

#1425
0aaaaa

#1430
1aaaaa
r-0.05882878229022026 aaaac
r-0.05803350731730461 aaaad
r5.426007747650146 aaaae
r5.430989742279053 aaaaf

#1435
0aaaaa

#1440
1aaaaa
r-0.0596291795372963 aaaac
r-0.05882878229022026 aaaad
r5.430989742279053 aaaae
r5.435998439788818 aaaaf

#1445
0aaaaa

#1450
1aaaaa
r-0.06043469533324242 aaaac
r-0.0596291795372963 aaaad
r5.435998439788818 aaaae
r5.441034317016602 aaaaf

#1455
0aaaaa

#1460
1aaaaa
r-0.06124531850218773 aaaac
r-0.06043469533324242 aaaad
r5.441034317016602 aaaae
r5.446095943450928 aaaaf

#1465
0aaaaa

#1470
1aaaaa
r-0.06206104531884193 aaaac
r-0.06124531850218773 aaaad
r5.446095943450928 aaaae
r5.451183795928955 aaaaf

#1475
0aaaaa

#1480
1aaaaa
r-0.06288186460733414 aaaac
r-0.06206104531884193 aaaad
r5.451183795928955 aaaae
r5.456297874450684 aaaaf

#1485
0aaaaa

#1490
1aaaaa
r-0.06370777636766434 aaaac
r-0.06288186460733414 aaaad
r5.456297874450684 aaaae
r5.46143913269043 aaaaf

#1495
0aaaaa

#1500
1aaaaa
r-0.06453876197338104 aaaac
r-0.06370777636766434 aaaad
r5.46143913269043 aaaae
r5.466605663299561 aaaaf

#1505
0aaaaa

#1510
1aaaaa
r-0.06537482142448425 aaaac
r-0.06453876197338104 aaaad
r5.466605663299561 aaaae
r5.471798896789551 aaaaf

#1515
0aaaaa

#1520
1aaaaa
r-0.06621594727039337 aaaac
r-0.06537482142448425 aaaad
r5.471798896789551 aaaae
r5.477018356323242 aaaaf

#1525
0aaaaa

#1530
1aaaaa
r-0.0670621246099472 aaaac
r-0.06621594727039337 aaaad
r5.477018356323242 aaaae
r5.482264041900635 aaaaf

#1535
0aaaaa

#1540
1aaaaa
r-0.06791335344314575 aaaac
r-0.0670621246099472 aaaad
r5.482264041900635 aaaae
r5.487535953521729 aaaaf

#1545
0aaaaa

#1550
1aaaaa
r-0.06876961886882782 aaaac
r-0.06791335344314575 aaaad
r5.487535953521729 aaaae
r5.492834091186523 aaaaf

#1555
0aaaaa

#1560
1aaaaa
r-0.06963092088699341 aaaac
r-0.06876961886882782 aaaad
r5.492834091186523 aaaae
r5.498157024383545 aaaaf

#1565
0aaaaa

#1570
1aaaaa
r-0.07049724459648132 aaaac
r-0.06963092088699341 aaaad
r5.498157024383545 aaaae
r5.503507614135742 aaaaf

#1575
0aaaaa

#1580
1aaaaa
r-0.07136858999729156 aaaac
r-0.07049724459648132 aaaad
r5.503507614135742 aaaae
r5.508883476257324 aaaaf

#1585
0aaaaa

#1590
1aaaaa
r-0.07224494218826294 aaaac
r-0.07136858999729156 aaaad
r5.508883476257324 aaaae
r5.514286518096924 aaaaf

#1595
0aaaaa

#1600
1aaaaa
r-0.07312629371881485 aaaac
r-0.07224494218826294 aaaad
r5.514286518096924 aaaae
r5.51971435546875 aaaaf

#1605
0aaaaa

#1610
1aaaaa
r-0.0740126371383667 aaaac
r-0.07312629371881485 aaaad
r5.51971435546875 aaaae
r5.525167465209961 aaaaf

#1615
0aaaaa

#1620
1aaaaa
r-0.07490396499633789 aaaac
r-0.0740126371383667 aaaad
r5.525167465209961 aaaae
r5.530648231506348 aaaaf

#1625
0aaaaa

#1630
1aaaaa
r-0.07580026984214783 aaaac
r-0.07490396499633789 aaaad
r5.530648231506348 aaaae
r5.536153793334961 aaaaf

#1635
0aaaaa

#1640
1aaaaa
r-0.07670154422521591 aaaac
r-0.07580026984214783 aaaad
r5.536153793334961 aaaae
r5.541685581207275 aaaaf

#1645
0aaaaa

#1650
1aaaaa
r-0.07760777324438095 aaaac
r-0.07670154422521591 aaaad
r5.541685581207275 aaaae
r5.547243118286133 aaaaf

#1655
0aaaaa

#1660
1aaaaa
r-0.07851895689964294 aaaac
r-0.07760777324438095 aaaad
r5.547243118286133 aaaae
r5.552825927734375 aaaaf

#1665
0aaaaa

#1670
1aaaaa
r-0.0794350802898407 aaaac
r-0.07851895689964294 aaaad
r5.552825927734375 aaaae
r5.55843448638916 aaaaf

#1675
0aaaaa

#1680
1aaaaa
r-0.08035613596439362 aaaac
r-0.0794350802898407 aaaad
r5.55843448638916 aaaae
r5.564068794250488 aaaaf

#1685
0aaaaa

#1690
1aaaaa
r-0.0812821164727211 aaaac
r-0.08035613596439362 aaaad
r5.564068794250488 aaaae
r5.569729328155518 aaaaf

#1695
0aaaaa

#1700
1aaaaa
r-0.08221301436424255 aaaac
r-0.0812821164727211 aaaad
r5.569729328155518 aaaae
r5.575414657592773 aaaaf

#1705
0aaaaa

#1710
1aaaaa
r-0.08314882218837738 aaaac
r-0.08221301436424255 aaaad
r5.575414657592773 aaaae
r5.581125736236572 aaaaf

#1715
0aaaaa

#1720
1aaaaa
r-0.08408953249454498 aaaac
r-0.08314882218837738 aaaad
r5.581125736236572 aaaae
r5.586862564086914 aaaaf

#1725
0aaaaa

#1730
1aaaaa
r-0.08503513038158417 aaaac
r-0.08408953249454498 aaaad
r5.586862564086914 aaaae
r5.592625141143799 aaaaf

#1735
0aaaaa

#1740
1aaaaa
r-0.08598560839891434 aaaac
r-0.08503513038158417 aaaad
r5.592625141143799 aaaae
r5.598412036895752 aaaaf

#1745
0aaaaa

#1750
1aaaaa
r-0.0869409590959549 aaaac
r-0.08598560839891434 aaaad
r5.598412036895752 aaaae
r5.604225635528564 aaaaf

#1755
0aaaaa

#1760
1aaaaa
r-0.08790117502212524 aaaac
r-0.0869409590959549 aaaad
r5.604225635528564 aaaae
r5.610064029693604 aaaaf

#1765
0aaaaa

#1770
1aaaaa
r-0.08886624872684479 aaaac
r-0.08790117502212524 aaaad
r5.610064029693604 aaaae
r5.615927219390869 aaaaf

#1775
0aaaaa

#1780
1aaaaa
r-0.08983616530895233 aaaac
r-0.08886624872684479 aaaad
r5.615927219390869 aaaae
r5.621816158294678 aaaaf

#1785
0aaaaa

#1790
1aaaaa
r-0.09081092476844788 aaaac
r-0.08983616530895233 aaaad
r5.621816158294678 aaaae
r5.627730369567871 aaaaf

#1795
0aaaaa

