code/build/project/IOSC_Wave.vcd
$date
     Dec 05, 2022       11:21:02
$end

$version
 SystemC 2.3.3-Accellera --- Sep  8 2022 15:04:50
$end

$timescale
     1 ns
$end

$scope module SystemC $end
$var wire    1  aaaaa  clock       $end
$var wire    1  aaaab  reset       $end
$var wire    4  aaaac  q [3:0]  $end
$var wire    4  aaaad  snr_q [3:0]  $end
$var wire    4  aaaae  motor_tau [3:0]  $end
$var wire    4  aaaaf  ctl_motor_tau [3:0]  $end
$upscope $end
$enddefinitions  $end

$comment
All initial values are dumped below at time 0 sec = 0 timescale units.
$end

$dumpvars
1aaaaa
1aaaab
b0 aaaac
b0 aaaad
b0 aaaae
b0 aaaaf
$end

#5
0aaaaa

#10
1aaaaa

#15
0aaaaa

#20
1aaaaa
b1111 aaaac

#25
0aaaaa

#30
1aaaaa
b1110 aaaac
b1111 aaaad

#35
0aaaaa

#40
1aaaaa
b1101 aaaac
b1110 aaaad

#45
0aaaaa

#50
1aaaaa
b1100 aaaac
b1101 aaaad

#55
0aaaaa

#60
1aaaaa
b1100 aaaad

#65
0aaaaa

#70
1aaaaa

#75
0aaaaa

#80
1aaaaa

#85
0aaaaa

#90
1aaaaa

#95
0aaaaa

#100
1aaaaa

#105
0aaaaa

#110
1aaaaa

#115
0aaaaa

#120
1aaaaa

#125
0aaaaa

#130
1aaaaa

#135
0aaaaa

#140
1aaaaa

#145
0aaaaa

#150
1aaaaa

#155
0aaaaa

#160
1aaaaa

#165
0aaaaa

#170
1aaaaa

#175
0aaaaa

#180
1aaaaa

#185
0aaaaa

#190
1aaaaa
b1101 aaaac

#195
0aaaaa

#200
1aaaaa
b1110 aaaac
b1101 aaaad

#205
0aaaaa

#210
1aaaaa
b1111 aaaac
b1110 aaaad

#215
0aaaaa

#220
1aaaaa
b0 aaaac
b1111 aaaad

#225
0aaaaa

#230
1aaaaa
b0 aaaad

#235
0aaaaa

#240
1aaaaa

#245
0aaaaa

#250
1aaaaa

#255
0aaaaa

#260
1aaaaa

#265
0aaaaa

#270
1aaaaa

#275
0aaaaa

#280
1aaaaa

#285
0aaaaa

#290
1aaaaa

#295
0aaaaa

#300
1aaaaa

#305
0aaaaa

#310
1aaaaa
b1111 aaaac

#315
0aaaaa

#320
1aaaaa
b1110 aaaac
b1111 aaaad

#325
0aaaaa

#330
1aaaaa
b1101 aaaac
b1110 aaaad

#335
0aaaaa

#340
1aaaaa
b1101 aaaad

#345
0aaaaa

#350
1aaaaa

#355
0aaaaa

#360
1aaaaa

#365
0aaaaa

#370
1aaaaa

#375
0aaaaa

#380
1aaaaa

#385
0aaaaa

#390
1aaaaa

#395
0aaaaa

#400
1aaaaa

#405
0aaaaa

#410
1aaaaa

#415
0aaaaa

#420
1aaaaa
b1110 aaaac

#425
0aaaaa

#430
1aaaaa
b1111 aaaac
b1110 aaaad

#435
0aaaaa

#440
1aaaaa
b1111 aaaad

#445
0aaaaa

#450
1aaaaa

#455
0aaaaa

#460
1aaaaa

#465
0aaaaa

#470
1aaaaa

#475
0aaaaa

#480
1aaaaa

#485
0aaaaa

#490
1aaaaa

#495
0aaaaa

#500
1aaaaa

#505
0aaaaa

#510
1aaaaa

#515
0aaaaa

#520
1aaaaa

#525
0aaaaa

#530
1aaaaa

#535
0aaaaa

#540
1aaaaa

#545
0aaaaa

#550
1aaaaa

#555
0aaaaa

#560
1aaaaa

#565
0aaaaa

#570
1aaaaa

#575
0aaaaa

#580
1aaaaa
b1110 aaaac

#585
0aaaaa

#590
1aaaaa
b1110 aaaad

