code/build/project/IOSC_Wave.vcd
$date
     Jan 05, 2023       14:48:12
$end

$version
 SystemC 2.3.3-Accellera --- Sep  8 2022 15:04:50
$end

$timescale
     100 ns
$end

$scope module SystemC $end
$var wire    1  aaaaa  s_robot_arm_clk       $end
$var wire    1  aaaab  s_motor_clk       $end
$var wire    1  aaaac  s_sensor_clk       $end
$var wire    1  aaaad  s_controller_clk       $end
$var wire    4  aaaae  leds [3:0]  $end
$var wire    1  aaaaf  reset       $end
$var real    1  aaaag  q       $end
$var wire   16  aaaah  snr_q [15:0]  $end
$var real    1  aaaai  motor_tau       $end
$var wire   16  aaaaj  ctl_motor_tau [15:0]  $end
$upscope $end
$enddefinitions  $end

$comment
All initial values are dumped below at time 0 sec = 0 timescale units.
$end

$dumpvars
1aaaaa
1aaaab
1aaaac
1aaaad
b0 aaaae
0aaaaf
r0 aaaag
b0 aaaah
r0 aaaai
b0 aaaaj
$end

#50000
0aaaaa
0aaaab
0aaaac
0aaaad

#100000
1aaaaa
1aaaab
1aaaac
1aaaad

#150000
0aaaaa
0aaaab
0aaaac
0aaaad

#200000
1aaaaa
1aaaab
1aaaac
1aaaad
b111 aaaae
r-0.00122625008225441 aaaag
b10100011000 aaaaj

#250000
0aaaaa
0aaaab
0aaaac
0aaaad

#300000
1aaaaa
1aaaab
1aaaac
1aaaad
r-0.003676362102851272 aaaag
b1111111111111111 aaaah
r1.304000020027161 aaaai
b101011110000000 aaaaj

#350000
0aaaaa
0aaaab
0aaaac
0aaaad

#400000
1aaaaa
1aaaab
1aaaac
1aaaad
r-0.007178201340138912 aaaag
b1111111111111101 aaaah
r22.39999961853027 aaaai
b101101100011010 aaaaj

#450000
0aaaaa
0aaaab
0aaaac
0aaaad

#500000
1aaaaa
1aaaab
1aaaac
1aaaad
r-0.008982930332422256 aaaag
b1111111111111001 aaaah
r23.32200050354004 aaaai
b101111011001010 aaaaj

#550000
0aaaaa
0aaaab
0aaaac
0aaaad

#600000
1aaaaa
1aaaab
1aaaac
1aaaad
r-0.008973642252385616 aaaag
b1111111111111000 aaaah
r24.26600074768066 aaaai
b110010101100100 aaaaj

#650000
0aaaaa
0aaaab
0aaaac
0aaaad

#700000
1aaaaa
1aaaab
1aaaac
1aaaad
r-0.007030937820672989 aaaag
r25.95599937438965 aaaai
b101111000001111 aaaaj

#750000
0aaaaa
0aaaab
0aaaac
0aaaad

#800000
1aaaaa
1aaaab
1aaaac
1aaaad
r-0.002938529476523399 aaaag
b1111111111111001 aaaah
r24.07900047302246 aaaai
b101110000011101 aaaaj

#850000
0aaaaa
0aaaab
0aaaac
0aaaad

#900000
1aaaaa
1aaaab
1aaaac
1aaaad
r0.003055206034332514 aaaag
b1111111111111110 aaaah
r23.58099937438965 aaaai
b101101000010100 aaaaj

#950000
0aaaaa
0aaaab
0aaaac
0aaaad

#1000000
1aaaaa
1aaaab
1aaaac
1aaaad
r0.01088225096464157 aaaag
b11 aaaah
r23.05999946594238 aaaai
b100111101111111 aaaaj

#1050000
0aaaaa
0aaaab
0aaaac
0aaaad

#1100000
1aaaaa
1aaaab
1aaaac
1aaaad
r0.02047210745513439 aaaag
b1010 aaaah
r20.35099983215332 aaaai
b100111111011000 aaaaj

#1150000
0aaaaa
0aaaab
0aaaac
0aaaad

#1200000
1aaaaa
1aaaab
1aaaac
1aaaad
r0.0314699113368988 aaaag
b10100 aaaah
r20.44000053405762 aaaai
b100101010001100 aaaaj

#1250000
0aaaaa
0aaaab
0aaaac
0aaaad

#1300000
1aaaaa
1aaaab
1aaaac
1aaaad
r0.04388594627380371 aaaag
b11111 aaaah
r19.08399963378906 aaaai
b100001001000000 aaaaj

#1350000
0aaaaa
0aaaab
0aaaac
0aaaad

#1400000
1aaaaa
1aaaab
1aaaac
1aaaad
r0.05754271149635315 aaaag
b101011 aaaah
r16.95999908447266 aaaai
b11111101010100 aaaaj

#1450000
0aaaaa
0aaaab
0aaaac
0aaaad

#1500000
1aaaaa
1aaaab
1aaaac
1aaaad
r0.07216326892375946 aaaag
b111001 aaaah
r16.21199989318848 aaaai
b11110001001111 aaaaj

#1550000
0aaaaa
0aaaab
0aaaac
0aaaad

#1600000
1aaaaa
1aaaab
1aaaac
1aaaad
r0.08765049278736115 aaaag
b1001000 aaaah
r15.43900012969971 aaaai
b11011001100000 aaaaj

#1650000
0aaaaa
0aaaab
0aaaac
0aaaad

#1700000
1aaaaa
1aaaab
1aaaac
1aaaad
r0.1039044857025146 aaaag
b1010111 aaaah
r13.92000007629395 aaaai
b11001100010011 aaaaj

#1750000
0aaaaa
0aaaab
0aaaac
0aaaad

#1800000
1aaaaa
1aaaab
1aaaac
1aaaad
r0.1207287088036537 aaaag
b1100111 aaaah
r13.07499980926514 aaaai
b11001010000000 aaaaj

#1850000
0aaaaa
0aaaab
0aaaac
0aaaad

#1900000
1aaaaa
1aaaab
1aaaac
1aaaad
r0.1380149722099304 aaaag
b1111000 aaaah
r12.92800045013428 aaaai
b10111100011000 aaaaj

#1950000
0aaaaa
0aaaab
0aaaac
0aaaad

#2000000
1aaaaa
1aaaab
1aaaac
1aaaad
r0.1557465046644211 aaaag
b10001010 aaaah
r12.05599975585938 aaaai
b10101110010101 aaaaj

#2050000
0aaaaa
0aaaab
0aaaac
0aaaad

#2100000
1aaaaa
1aaaab
1aaaac
1aaaad
r0.1738125830888748 aaaag
b10011011 aaaah
r11.1569995880127 aaaai
b10011111111010 aaaaj

#2150000
0aaaaa
0aaaab
0aaaac
0aaaad

#2200000
1aaaaa
1aaaab
1aaaac
1aaaad
r0.1920995265245438 aaaag
b10101101 aaaah
r10.23400020599365 aaaai
b10100111101001 aaaaj

#2250000
0aaaaa
0aaaab
0aaaac
0aaaad

#2300000
1aaaaa
1aaaab
1aaaac
1aaaad
r0.2104910612106323 aaaag
b11000000 aaaah
r10.72900009155273 aaaai
b10011001000110 aaaaj

#2350000
0aaaaa
0aaaab
0aaaac
0aaaad

#2400000
1aaaaa
1aaaab
1aaaac
1aaaad
r0.2290560603141785 aaaag
b11010010 aaaah
r9.798000335693359 aaaai
b10001010001010 aaaaj

#2450000
0aaaaa
0aaaab
0aaaac
0aaaad

#2500000
1aaaaa
1aaaab
1aaaac
1aaaad
r0.247678130865097 aaaag
b11100101 aaaah
r8.842000007629395 aaaai
b10010001011000 aaaaj

#2550000
0aaaaa
0aaaab
0aaaac
0aaaad

#2600000
1aaaaa
1aaaab
1aaaac
1aaaad
r0.2662381529808044 aaaag
b11110111 aaaah
r9.303999900817871 aaaai
b10000010010100 aaaaj

#2650000
0aaaaa
0aaaab
0aaaac
0aaaad

#2700000
1aaaaa
1aaaab
1aaaac
1aaaad
r0.2848020792007446 aaaag
b100001010 aaaah
r8.340000152587891 aaaai
b10001001011011 aaaaj

#2750000
0aaaaa
0aaaab
0aaaac
0aaaad

#2800000
1aaaaa
1aaaab
1aaaac
1aaaad
r0.3032506108283997 aaaag
b100011100 aaaah
r8.795000076293945 aaaai
b1111010001111 aaaaj

#2850000
0aaaaa
0aaaab
0aaaac
0aaaad

#2900000
1aaaaa
1aaaab
1aaaac
1aaaad
r0.3216496407985687 aaaag
b100101111 aaaah
r7.822999954223633 aaaai
b10000001001111 aaaaj

#2950000
0aaaaa
0aaaab
0aaaac
0aaaad

#3000000
1aaaaa
1aaaab
1aaaac
1aaaad
r0.33987957239151 aaaag
b101000001 aaaah
r8.270999908447266 aaaai
b1110001111100 aaaaj

#3050000
0aaaaa
0aaaab
0aaaac
0aaaad

#3100000
1aaaaa
1aaaab
1aaaac
1aaaad
r0.3580061197280884 aaaag
b101010011 aaaah
r7.291999816894531 aaaai
b1111000110100 aaaaj

#3150000
0aaaaa
0aaaab
0aaaac
0aaaad

#3200000
1aaaaa
1aaaab
1aaaac
1aaaad
r0.3759095072746277 aaaag
b101100110 aaaah
r7.73199987411499 aaaai
b1110100101100 aaaaj

#3250000
0aaaaa
0aaaab
0aaaac
0aaaad

#3300000
1aaaaa
1aaaab
1aaaac
1aaaad
r0.3936550617218018 aaaag
b101110111 aaaah
r7.467999935150146 aaaai
b1100101001110 aaaaj

#3350000
0aaaaa
0aaaab
0aaaac
0aaaad

#3400000
1aaaaa
1aaaab
1aaaac
1aaaad
r0.4112167060375214 aaaag
b110001001 aaaah
r6.478000164031982 aaaai
b1110111001110 aaaaj

#3450000
0aaaaa
0aaaab
0aaaac
0aaaad

#3500000
1aaaaa
1aaaab
1aaaac
1aaaad
r0.4284741282463074 aaaag
b110011011 aaaah
r7.630000114440918 aaaai
b1100111111111 aaaaj

#3550000
0aaaaa
0aaaab
0aaaac
0aaaad

#3600000
1aaaaa
1aaaab
1aaaac
1aaaad
r0.4455861747264862 aaaag
b110101100 aaaah
r6.65500020980835 aaaai
b1100011101001 aaaaj

#3650000
0aaaaa
0aaaab
0aaaac
0aaaad

#3700000
1aaaaa
1aaaab
1aaaac
1aaaad
r0.4624348878860474 aaaag
b110111101 aaaah
r6.376999855041504 aaaai
b1101010100001 aaaaj

#3750000
0aaaaa
0aaaab
0aaaac
0aaaad

#3800000
1aaaaa
1aaaab
1aaaac
1aaaad
r0.4789933860301971 aaaag
b111001110 aaaah
r6.816999912261963 aaaai
b1100110011010 aaaaj

#3850000
0aaaaa
0aaaab
0aaaac
0aaaad

#3900000
1aaaaa
1aaaab
1aaaac
1aaaad
r0.4953283667564392 aaaag
b111011110 aaaah
r6.553999900817871 aaaai
b1100010010000 aaaaj

#3950000
0aaaaa
0aaaab
0aaaac
0aaaad

#4000000
1aaaaa
1aaaab
1aaaac
1aaaad
r0.5114151835441589 aaaag
b111101111 aaaah
r6.288000106811523 aaaai
b1101001010100 aaaaj

#4050000
0aaaaa
0aaaab
0aaaac
0aaaad

#4100000
1aaaaa
1aaaab
1aaaac
1aaaad
r0.5272288918495178 aaaag
b111111111 aaaah
r6.739999771118164 aaaai
b1011010000111 aaaaj

#4150000
0aaaaa
0aaaab
0aaaac
0aaaad

#4200000
1aaaaa
1aaaab
1aaaac
1aaaad
r0.5428382158279419 aaaag
b1000001111 aaaah
r5.767000198364258 aaaai
b1100001000101 aaaaj

#4250000
0aaaaa
0aaaab
0aaaac
0aaaad

#4300000
1aaaaa
1aaaab
1aaaac
1aaaad
r0.5581263899803162 aaaag
b1000011110 aaaah
r6.212999820709229 aaaai
b1011101000011 aaaaj

#4350000
0aaaaa
0aaaab
0aaaac
0aaaad

#4400000
1aaaaa
1aaaab
1aaaac
1aaaad
r0.5731616020202637 aaaag
b1000101110 aaaah
r5.954999923706055 aaaai
b1100100010001 aaaaj

#4450000
0aaaaa
0aaaab
0aaaac
0aaaad

#4500000
1aaaaa
1aaaab
1aaaac
1aaaad
r0.5879203081130981 aaaag
b1000111101 aaaah
r6.416999816894531 aaaai
b1010101001101 aaaaj

#4550000
0aaaaa
0aaaab
0aaaac
0aaaad

#4600000
1aaaaa
1aaaab
1aaaac
1aaaad
r0.6024729013442993 aaaag
b1001001011 aaaah
r5.453000068664551 aaaai
b1011100010101 aaaaj

#4650000
0aaaaa
0aaaab
0aaaac
0aaaad

#4700000
1aaaaa
1aaaab
1aaaac
1aaaad
r0.616703987121582 aaaag
b1001011010 aaaah
r5.908999919891357 aaaai
b1100011101111 aaaaj

#4750000
0aaaaa
0aaaab
0aaaac
0aaaad

#4800000
1aaaaa
1aaaab
1aaaac
1aaaad
r0.6306832432746887 aaaag
b1001101000 aaaah
r6.382999897003174 aaaai
b1010100111001 aaaaj

#4850000
0aaaaa
0aaaab
0aaaac
0aaaad

#4900000
1aaaaa
1aaaab
1aaaac
1aaaad
r0.6444826722145081 aaaag
b1001110110 aaaah
r5.433000087738037 aaaai
b1011100001110 aaaaj

#4950000
0aaaaa
0aaaab
0aaaac
0aaaad

#5000000
1aaaaa
1aaaab
1aaaac
1aaaad
r0.6579887866973877 aaaag
b1010000100 aaaah
r5.901999950408936 aaaai
b1011000100100 aaaaj

#5050000
0aaaaa
0aaaab
0aaaac
0aaaad

#5100000
1aaaaa
1aaaab
1aaaac
1aaaad
r0.6712729930877686 aaaag
b1010010001 aaaah
r5.668000221252441 aaaai
b1010100110111 aaaaj

#5150000
0aaaaa
0aaaab
0aaaac
0aaaad

#5200000
1aaaaa
1aaaab
1aaaac
1aaaad
r0.684315025806427 aaaag
b1010011111 aaaah
r5.431000232696533 aaaai
b1011100011010 aaaaj

#5250000
0aaaaa
0aaaab
0aaaac
0aaaad

#5300000
1aaaaa
1aaaab
1aaaac
1aaaad
r0.6970943212509155 aaaag
b1010101100 aaaah
r5.914000034332275 aaaai
b1001101101100 aaaaj

#5350000
0aaaaa
0aaaab
0aaaac
0aaaad

#5400000
1aaaaa
1aaaab
1aaaac
1aaaad
r0.7096840739250183 aaaag
b1010111001 aaaah
r4.972000122070312 aaaai
b1010101001001 aaaaj

#5450000
0aaaaa
0aaaab
0aaaac
0aaaad

#5500000
1aaaaa
1aaaab
1aaaac
1aaaad
r0.7219717502593994 aaaag
b1011000101 aaaah
r5.448999881744385 aaaai
b1010001100111 aaaaj

#5550000
0aaaaa
0aaaab
0aaaac
0aaaad

#5600000
1aaaaa
1aaaab
1aaaac
1aaaad
r0.7340296506881714 aaaag
b1011010001 aaaah
r5.223000049591064 aaaai
b1011001010110 aaaaj

#5650000
0aaaaa
0aaaab
0aaaac
0aaaad

#5700000
1aaaaa
1aaaab
1aaaac
1aaaad
r0.7458384037017822 aaaag
b1011011110 aaaah
r5.717999935150146 aaaai
b1010110000101 aaaaj

#5750000
0aaaaa
0aaaab
0aaaac
0aaaad

#5800000
1aaaaa
1aaaab
1aaaac
1aaaad
r0.7574725151062012 aaaag
b1011101001 aaaah
r5.508999824523926 aaaai
b1000111100000 aaaaj

#5850000
0aaaaa
0aaaab
0aaaac
0aaaad

#5900000
1aaaaa
1aaaab
1aaaac
1aaaad
r0.7689146995544434 aaaag
b1011110101 aaaah
r4.576000213623047 aaaai
b1011010011010 aaaaj

#5950000
0aaaaa
0aaaab
0aaaac
0aaaad

#6000000
1aaaaa
1aaaab
1aaaac
1aaaad
r0.780053436756134 aaaag
b1100000000 aaaah
r5.785999774932861 aaaai
b1001100000110 aaaaj

#6050000
0aaaaa
0aaaab
0aaaac
0aaaad

#6100000
1aaaaa
1aaaab
1aaaac
1aaaad
r0.7910560965538025 aaaag
b1100001100 aaaah
r4.869999885559082 aaaai
b1010011111111 aaaaj

#6150000
0aaaaa
0aaaab
0aaaac
0aaaad

#6200000
1aaaaa
1aaaab
1aaaac
1aaaad
r0.8018131256103516 aaaag
b1100010111 aaaah
r5.375 aaaai
b1000101100111 aaaaj

#6250000
0aaaaa
0aaaab
0aaaac
0aaaad

#6300000
1aaaaa
1aaaab
1aaaac
1aaaad
r0.8123999238014221 aaaag
b1100100001 aaaah
r4.454999923706055 aaaai
b1001101011010 aaaaj

#6350000
0aaaaa
0aaaab
0aaaac
0aaaad

#6400000
1aaaaa
1aaaab
1aaaac
1aaaad
r0.8227063417434692 aaaag
b1100101100 aaaah
r4.953999996185303 aaaai
b1010101100010 aaaaj

#6450000
0aaaaa
0aaaab
0aaaac
0aaaad

#6500000
1aaaaa
1aaaab
1aaaac
1aaaad
r0.8328068852424622 aaaag
b1100110110 aaaah
r5.473999977111816 aaaai
b1000111011010 aaaaj

#6550000
0aaaaa
0aaaab
0aaaac
0aaaad

#6600000
1aaaaa
1aaaab
1aaaac
1aaaad
r0.8427786231040955 aaaag
b1101000000 aaaah
r4.570000171661377 aaaai
b1001111011101 aaaaj

#6650000
0aaaaa
0aaaab
0aaaac
0aaaad

#6700000
1aaaaa
1aaaab
1aaaac
1aaaad
r0.8525130748748779 aaaag
b1101001010 aaaah
r5.085000038146973 aaaai
b1001100100011 aaaaj

#6750000
0aaaaa
0aaaab
0aaaac
0aaaad

#6800000
1aaaaa
1aaaab
1aaaac
1aaaad
r0.8620865345001221 aaaag
b1101010100 aaaah
r4.89900016784668 aaaai
b1001001100111 aaaaj

#6850000
0aaaaa
0aaaab
0aaaac
0aaaad

#6900000
1aaaaa
1aaaab
1aaaac
1aaaad
r0.8714838624000549 aaaag
b1101011110 aaaah
r4.710999965667725 aaaai
b1000110101000 aaaaj

#6950000
0aaaaa
0aaaab
0aaaac
0aaaad

#7000000
1aaaaa
1aaaab
1aaaac
1aaaad
r0.8806896209716797 aaaag
b1101100111 aaaah
r4.519999980926514 aaaai
b1000011101000 aaaaj

#7050000
0aaaaa
0aaaab
0aaaac
0aaaad

#7100000
1aaaaa
1aaaab
1aaaac
1aaaad
r0.8896877765655518 aaaag
b1101110000 aaaah
r4.328000068664551 aaaai
b1001011110111 aaaaj

#7150000
0aaaaa
0aaaab
0aaaac
0aaaad

#7200000
1aaaaa
1aaaab
1aaaac
1aaaad
r0.898462176322937 aaaag
b1101111001 aaaah
r4.855000019073486 aaaai
b1001001001001 aaaaj

#7250000
0aaaaa
0aaaab
0aaaac
0aaaad

#7300000
1aaaaa
1aaaab
1aaaac
1aaaad
r0.9070901274681091 aaaag
b1110000010 aaaah
r4.681000232696533 aaaai
b1000110011010 aaaaj

#7350000
0aaaaa
0aaaab
0aaaac
0aaaad

#7400000
1aaaaa
1aaaab
1aaaac
1aaaad
r0.9155574440956116 aaaag
b1110001011 aaaah
r4.50600004196167 aaaai
b1000011101000 aaaaj

#7450000
0aaaaa
0aaaab
0aaaac
0aaaad

#7500000
1aaaaa
1aaaab
1aaaac
1aaaad
r0.9238498210906982 aaaag
b1110010011 aaaah
r4.328000068664551 aaaai
b1000000110101 aaaaj

#7550000
0aaaaa
0aaaab
0aaaac
0aaaad

#7600000
1aaaaa
1aaaab
1aaaac
1aaaad
r0.9319523572921753 aaaag
b1110011011 aaaah
r4.14900016784668 aaaai
b1001001010010 aaaaj

#7650000
0aaaaa
0aaaab
0aaaac
0aaaad

#7700000
1aaaaa
1aaaab
1aaaac
1aaaad
r0.9398499131202698 aaaag
b1110100011 aaaah
r4.690000057220459 aaaai
b1000110110001 aaaaj

#7750000
0aaaaa
0aaaab
0aaaac
0aaaad

#7800000
1aaaaa
1aaaab
1aaaac
1aaaad
r0.9476211071014404 aaaag
b1110101011 aaaah
r4.528999805450439 aaaai
b1000100001111 aaaaj

#7850000
0aaaaa
0aaaab
0aaaac
0aaaad

#7900000
1aaaaa
1aaaab
1aaaac
1aaaad
r0.9552527666091919 aaaag
b1110110011 aaaah
r4.367000102996826 aaaai
b1000001101011 aaaaj

#7950000
0aaaaa
0aaaab
0aaaac
0aaaad

#8000000
1aaaaa
1aaaab
1aaaac
1aaaad
r0.9627317190170288 aaaag
b1110111011 aaaah
r4.203000068664551 aaaai
b111111000110 aaaaj

#8050000
0aaaaa
0aaaab
0aaaac
0aaaad

#8100000
1aaaaa
1aaaab
1aaaac
1aaaad
r0.9700442552566528 aaaag
b1111000010 aaaah
r4.038000106811523 aaaai
b111100011111 aaaaj

#8150000
0aaaaa
0aaaab
0aaaac
0aaaad

#8200000
1aaaaa
1aaaab
1aaaac
1aaaad
r0.9771765470504761 aaaag
b1111001010 aaaah
r3.871000051498413 aaaai
b1000101001000 aaaaj

#8250000
0aaaaa
0aaaab
0aaaac
0aaaad

#8300000
1aaaaa
1aaaab
1aaaac
1aaaad
r0.9841143488883972 aaaag
b1111010001 aaaah
r4.423999786376953 aaaai
b110111100010 aaaaj

#8350000
0aaaaa
0aaaab
0aaaac
0aaaad

#8400000
1aaaaa
1aaaab
1aaaac
1aaaad
r0.9909369945526123 aaaag
b1111011000 aaaah
r3.553999900817871 aaaai
b1000000001001 aaaaj

#8450000
0aaaaa
0aaaab
0aaaac
0aaaad

#8500000
1aaaaa
1aaaab
1aaaac
1aaaad
r0.9975383281707764 aaaag
b1111011110 aaaah
r4.105000019073486 aaaai
b111101110010 aaaaj

#8550000
0aaaaa
0aaaab
0aaaac
0aaaad

#8600000
1aaaaa
1aaaab
1aaaac
1aaaad
r1.003997325897217 aaaag
b1111100101 aaaah
r3.953999996185303 aaaai
b1000110101100 aaaaj

#8650000
0aaaaa
0aaaab
0aaaac
0aaaad

#8700000
1aaaaa
1aaaab
1aaaac
1aaaad
b1111 aaaae
r1.010301113128662 aaaag
b1111101011 aaaah
r4.52400016784668 aaaai
b111001010111 aaaaj

#8750000
0aaaaa
0aaaab
0aaaac
0aaaad

#8800000
1aaaaa
1aaaab
1aaaac
1aaaad
r1.016530632972717 aaaag
b1111110010 aaaah
r3.671000003814697 aaaai
b1000010001110 aaaaj

#8850000
0aaaaa
0aaaab
0aaaac
0aaaad

#8900000
1aaaaa
1aaaab
1aaaac
1aaaad
r1.022581577301025 aaaag
b1111111000 aaaah
r4.23799991607666 aaaai
b110100110110 aaaaj

#8950000
0aaaaa
0aaaab
0aaaac
0aaaad

#9000000
1aaaaa
1aaaab
1aaaac
1aaaad
r1.028534293174744 aaaag
b1111111110 aaaah
r3.381999969482422 aaaai
b111101101011 aaaaj

#9050000
0aaaaa
0aaaab
0aaaac
0aaaad

#9100000
1aaaaa
1aaaab
1aaaac
1aaaad
r1.034283638000488 aaaag
b10000000100 aaaah
r3.947000026702881 aaaai
b111011100011 aaaaj

#9150000
0aaaaa
0aaaab
0aaaac
0aaaad

#9200000
1aaaaa
1aaaab
1aaaac
1aaaad
r1.039909601211548 aaaag
b10000001010 aaaah
r3.811000108718872 aaaai
b111001011001 aaaaj

#9250000
0aaaaa
0aaaab
0aaaac
0aaaad

#9300000
1aaaaa
1aaaab
1aaaac
1aaaad
r1.045400738716125 aaaag
b10000001111 aaaah
r3.67300009727478 aaaai
b110111001110 aaaaj

#9350000
0aaaaa
0aaaab
0aaaac
0aaaad

#9400000
1aaaaa
1aaaab
1aaaac
1aaaad
r1.050745010375977 aaaag
b10000010101 aaaah
r3.533999919891357 aaaai
b1000000010100 aaaaj

#9450000
0aaaaa
0aaaab
0aaaac
0aaaad

#9500000
1aaaaa
1aaaab
1aaaac
1aaaad
r1.055930256843567 aaaag
b10000011010 aaaah
r4.116000175476074 aaaai
b110011001011 aaaaj

#9550000
0aaaaa
0aaaab
0aaaac
0aaaad

#9600000
1aaaaa
1aaaab
1aaaac
1aaaad
r1.061038017272949 aaaag
b10000011111 aaaah
r3.275000095367432 aaaai
b111100001111 aaaaj

#9650000
0aaaaa
0aaaab
0aaaac
0aaaad

#9700000
1aaaaa
1aaaab
1aaaac
1aaaad
r1.065964341163635 aaaag
b10000100101 aaaah
r3.855000019073486 aaaai
b111010010110 aaaaj

#9750000
0aaaaa
0aaaab
0aaaac
0aaaad

#9800000
1aaaaa
1aaaab
1aaaac
1aaaad
r1.070790410041809 aaaag
b10000101001 aaaah
r3.733999967575073 aaaai
b101101001010 aaaaj

#9850000
0aaaaa
0aaaab
0aaaac
0aaaad

#9900000
1aaaaa
1aaaab
1aaaac
1aaaad
r1.07550573348999 aaaag
b10000101110 aaaah
r2.890000104904175 aaaai
b1000001011101 aaaaj

#9950000
0aaaaa
0aaaab
0aaaac
0aaaad

#10000000
1aaaaa
1aaaab
1aaaac
1aaaad
r1.080005764961243 aaaag
b10000110011 aaaah
r4.189000129699707 aaaai
b110100100101 aaaaj

#10050000
0aaaaa
0aaaab
0aaaac
0aaaad

#10100000
1aaaaa
1aaaab
1aaaac
1aaaad
r1.084464907646179 aaaag
b10000111000 aaaah
r3.365000009536743 aaaai
b110010101000 aaaaj

#10150000
0aaaaa
0aaaab
0aaaac
0aaaad

#10200000
1aaaaa
1aaaab
1aaaac
1aaaad
r1.088780641555786 aaaag
b10000111100 aaaah
r3.240000009536743 aaaai
b110000101010 aaaaj

#10250000
0aaaaa
0aaaab
0aaaac
0aaaad

#10300000
1aaaaa
1aaaab
1aaaac
1aaaad
r1.092941761016846 aaaag
b10001000000 aaaah
r3.114000082015991 aaaai
b111001111101 aaaaj

#10350000
0aaaaa
0aaaab
0aaaac
0aaaad

#10400000
1aaaaa
1aaaab
1aaaac
1aaaad
r1.096936583518982 aaaag
b10001000100 aaaah
r3.709000110626221 aaaai
b111000010100 aaaaj

#10450000
0aaaaa
0aaaab
0aaaac
0aaaad

#10500000
1aaaaa
1aaaab
1aaaac
1aaaad
r1.100847244262695 aaaag
b10001001000 aaaah
r3.604000091552734 aaaai
b110110101001 aaaaj

#10550000
0aaaaa
0aaaab
0aaaac
0aaaad

#10600000
1aaaaa
1aaaab
1aaaac
1aaaad
r1.104664444923401 aaaag
b10001001100 aaaah
r3.496999979019165 aaaai
b110100111110 aaaaj

#10650000
0aaaaa
0aaaab
0aaaac
0aaaad

#10700000
1aaaaa
1aaaab
1aaaac
1aaaad
r1.108378648757935 aaaag
b10001010000 aaaah
r3.390000104904175 aaaai
b110011010010 aaaaj

#10750000
0aaaaa
0aaaab
0aaaac
0aaaad

#10800000
1aaaaa
1aaaab
1aaaac
1aaaad
r1.111980199813843 aaaag
b10001010100 aaaah
r3.282000064849854 aaaai
b110001100101 aaaaj

#10850000
0aaaaa
0aaaab
0aaaac
0aaaad

#10900000
1aaaaa
1aaaab
1aaaac
1aaaad
r1.115459203720093 aaaag
b10001010111 aaaah
r3.17300009727478 aaaai
b101111111000 aaaaj

#10950000
0aaaaa
0aaaab
0aaaac
0aaaad

#11000000
1aaaaa
1aaaab
1aaaac
1aaaad
r1.118805408477783 aaaag
b10001011011 aaaah
r3.063999891281128 aaaai
b111001011100 aaaaj

#11050000
0aaaaa
0aaaab
0aaaac
0aaaad

#11100000
1aaaaa
1aaaab
1aaaac
1aaaad
r1.122008681297302 aaaag
b10001011110 aaaah
r3.676000118255615 aaaai
b101100110000 aaaaj

#11150000
0aaaaa
0aaaab
0aaaac
0aaaad

#11200000
1aaaaa
1aaaab
1aaaac
1aaaad
r1.125152349472046 aaaag
b10001100010 aaaah
r2.864000082015991 aaaai
b110110010011 aaaaj

#11250000
0aaaaa
0aaaab
0aaaac
0aaaad

#11300000
1aaaaa
1aaaab
1aaaac
1aaaad
r1.128134369850159 aaaag
b10001100101 aaaah
r3.474999904632568 aaaai
b101001100111 aaaaj

#11350000
0aaaaa
0aaaab
0aaaac
0aaaad

#11400000
1aaaaa
1aaaab
1aaaac
1aaaad
r1.131037950515747 aaaag
b10001101000 aaaah
r2.663000106811523 aaaai
b110011000111 aaaaj

#11450000
0aaaaa
0aaaab
0aaaac
0aaaad

#11500000
1aaaaa
1aaaab
1aaaac
1aaaad
r1.133760690689087 aaaag
b10001101011 aaaah
r3.270999908447266 aaaai
b110001101100 aaaaj

#11550000
0aaaaa
0aaaab
0aaaac
0aaaad

#11600000
1aaaaa
1aaaab
1aaaac
1aaaad
r1.136385083198547 aaaag
b10001101101 aaaah
r3.180000066757202 aaaai
b110000010000 aaaaj

#11650000
0aaaaa
0aaaab
0aaaac
0aaaad

#11700000
1aaaaa
1aaaab
1aaaac
1aaaad
r1.138902306556702 aaaag
b10001110000 aaaah
r3.088000059127808 aaaai
b111010000101 aaaaj

#11750000
0aaaaa
0aaaab
0aaaac
0aaaad

#11800000
1aaaaa
1aaaab
1aaaac
1aaaad
r1.141303539276123 aaaag
b10001110010 aaaah
r3.717000007629395 aaaai
b101101101100 aaaaj

#11850000
0aaaaa
0aaaab
0aaaac
0aaaad

#11900000
1aaaaa
1aaaab
1aaaac
1aaaad
r1.143673419952393 aaaag
b10001110101 aaaah
r2.924000024795532 aaaai
b110111100000 aaaaj

#11950000
0aaaaa
0aaaab
0aaaac
0aaaad

#12000000
1aaaaa
1aaaab
1aaaac
1aaaad
r1.145911574363708 aaaag
b10001110111 aaaah
r3.552000045776367 aaaai
b101011000110 aaaaj

#12050000
0aaaaa
0aaaab
0aaaac
0aaaad

#12100000
1aaaaa
1aaaab
1aaaac
1aaaad
r1.148102402687073 aaaag
b10001111001 aaaah
r2.757999897003174 aaaai
b110100111010 aaaaj

#12150000
0aaaaa
0aaaab
0aaaac
0aaaad

#12200000
1aaaaa
1aaaab
1aaaac
1aaaad
r1.150145053863525 aaaag
b10001111100 aaaah
r3.385999917984009 aaaai
b110011110001 aaaaj

#12250000
0aaaaa
0aaaab
0aaaac
0aaaad

#12300000
1aaaaa
1aaaab
1aaaac
1aaaad
r1.152123928070068 aaaag
b10001111110 aaaah
r3.312999963760376 aaaai
b100111010101 aaaaj

#12350000
0aaaaa
0aaaab
0aaaac
0aaaad

#12400000
1aaaaa
1aaaab
1aaaac
1aaaad
r1.154031753540039 aaaag
b10010000000 aaaah
r2.516999959945679 aaaai
b110001000111 aaaaj

#12450000
0aaaaa
0aaaab
0aaaac
0aaaad

#12500000
1aaaaa
1aaaab
1aaaac
1aaaad
r1.155767321586609 aaaag
b10010000010 aaaah
r3.142999887466431 aaaai
b101111111101 aaaaj

#12550000
0aaaaa
0aaaab
0aaaac
0aaaad

#12600000
1aaaaa
1aaaab
1aaaac
1aaaad
r1.157414317131042 aaaag
b10010000011 aaaah
r3.069000005722046 aaaai
b101110110010 aaaaj

#12650000
0aaaaa
0aaaab
0aaaac
0aaaad

#12700000
1aaaaa
1aaaab
1aaaac
1aaaad
r1.158965110778809 aaaag
b10010000101 aaaah
r2.99399995803833 aaaai
b111000111001 aaaaj

#12750000
0aaaaa
0aaaab
0aaaac
0aaaad

#12800000
1aaaaa
1aaaab
1aaaac
1aaaad
r1.160411834716797 aaaag
b10010000110 aaaah
r3.641000032424927 aaaai
b101100110001 aaaaj

#12850000
0aaaaa
0aaaab
0aaaac
0aaaad

#12900000
1aaaaa
1aaaab
1aaaac
1aaaad
r1.161840677261353 aaaag
b10010001000 aaaah
r2.865000009536743 aaaai
b110110111000 aaaaj

#12950000
0aaaaa
0aaaab
0aaaac
0aaaad

#13000000
1aaaaa
1aaaab
1aaaac
1aaaad
r1.163152098655701 aaaag
b10010001001 aaaah
r3.51200008392334 aaaai
b101010110000 aaaaj

#13050000
0aaaaa
0aaaab
0aaaac
0aaaad

